<?xml version="1.0" encoding="utf-8"?>
<!-- Generator: Adobe Illustrator 19.0.0, SVG Export Plug-In . SVG Version: 6.00 Build 0)  -->
<svg version="1.1" id="Capa_1" xmlns="http://www.w3.org/2000/svg" xmlns:xlink="http://www.w3.org/1999/xlink" x="0px" y="0px"
	 viewBox="-189 280.8 232.2 232.2" style="enable-background:new -189 280.8 232.2 232.2;" xml:space="preserve">
<g id="Play">
	<path d="M-89.4,309.2l-97.3,154.5c-2.7,4.6-2.3,10.2-2.3,14.5c0,17.1,13.2,17.1,16.6,17.1H26.5c2.8,0,16.6,0.1,16.6-17.1
		c0-4.3,0.5-10-2.3-14.5l-97.3-154.5c-7.5-12.7-16.4-10.5-16.4-10.5S-81.8,296.5-89.4,309.2z"/>
</g>
</svg>
