<?xml version="1.0" encoding="iso-8859-1"?>
<!-- Generator: Adobe Illustrator 16.0.0, SVG Export Plug-In . SVG Version: 6.00 Build 0)  -->
<!DOCTYPE svg PUBLIC "-//W3C//DTD SVG 1.1//EN" "http://www.w3.org/Graphics/SVG/1.1/DTD/svg11.dtd">
<svg version="1.1" id="Capa_1" xmlns="http://www.w3.org/2000/svg" xmlns:xlink="http://www.w3.org/1999/xlink" x="0px" y="0px"
	 width="279.913px" height="279.914px" viewBox="0 0 279.913 279.914" style="enable-background:new 0 0 279.913 279.914;"
	 xml:space="preserve">
<g>
	<g>
		<path d="M265.232,130.91H29.358V63.853c0-8.112-6.574-14.678-14.681-14.678C6.573,49.175,0,55.746,0,63.853v152.205
			c0,8.114,6.573,14.68,14.678,14.68c8.112,0,14.681-6.576,14.681-14.68v-7.349h221.199v7.349c0,8.114,6.57,14.68,14.675,14.68
			c8.115,0,14.681-6.576,14.681-14.68V145.59C279.918,137.484,273.348,130.91,265.232,130.91z M250.558,190.769
			c-5.713-2.939-10.38-2.498-16.402,1.341c-10.41,6.642-24.436,6.642-34.85,0c-6.82-4.356-11.908-4.356-18.733,0
			c-10.42,6.642-24.445,6.642-34.854,0c-6.83-4.356-11.911-4.356-18.738,0c-10.415,6.642-24.44,6.642-34.855,0
			c-6.822-4.356-11.908-4.356-18.735,0c-10.41,6.642-24.438,6.642-34.853,0c-3.339-2.128-6.261-3.163-9.184-3.199v-5.891
			c4.009,0.025,8.018,1.382,12.334,4.134c8.536,5.438,20.018,5.438,28.546,0c8.777-5.596,16.265-5.596,25.037,0
			c8.538,5.438,20.02,5.438,28.548,0c8.777-5.596,16.265-5.596,25.037,0c8.541,5.438,20.018,5.438,28.549,0
			c8.774-5.596,16.265-5.596,25.034,0c8.531,5.438,20.018,5.438,28.549,0c6.885-4.388,12.999-5.251,19.55-2.732v6.348H250.558z"/>
		<path d="M33.7,94.164v33.085h32.131c9.141-9.135,9.141-23.956,0-33.085C56.693,85.028,42.835,85.028,33.7,94.164z"/>
	</g>
</g>
<g>
</g>
<g>
</g>
<g>
</g>
<g>
</g>
<g>
</g>
<g>
</g>
<g>
</g>
<g>
</g>
<g>
</g>
<g>
</g>
<g>
</g>
<g>
</g>
<g>
</g>
<g>
</g>
<g>
</g>
</svg>
