<?xml version="1.0" standalone="no"?>
<!DOCTYPE svg PUBLIC "-//W3C//DTD SVG 1.1//EN" "http://www.w3.org/Graphics/SVG/1.1/DTD/svg11.dtd" >
<svg>
<metadata>
Created by FontForge 20090622 at Fri Dec 18 15:20:54 2015
 By deploy user
Copyright (c) 1989, 1995 Adobe Systems Incorporated.  All Rights Reserved.Avenir is a trademark of Linotype-Hell AG and/or its subsidiaries.
</metadata>
<defs>
<font id="AvenirLT-Light" horiz-adv-x="520" >
  <font-face 
    font-family="Avenir LT 35 Light"
    font-weight="400"
    font-stretch="normal"
    units-per-em="1000"
    panose-1="2 0 5 3 3 0 0 2 0 3"
    ascent="800"
    descent="-200"
    x-height="462"
    cap-height="708"
    bbox="-167 -250 1000 932"
    underline-thickness="50"
    underline-position="-75"
    unicode-range="U+0020-U+FB02"
  />
<missing-glyph horiz-adv-x="260" 
 />
    <glyph glyph-name=".notdef" horiz-adv-x="260" 
 />
    <glyph glyph-name="exclam" unicode="!" horiz-adv-x="370" 
d="M137 42q0 20 14 34t34 14t34 -14t14 -34t-14 -34t-34 -14t-34 14t-14 34zM215 186h-60v522h60v-522z" />
    <glyph glyph-name="quotedbl" unicode="&#x22;" 
d="M299 708h60v-228h-60v228zM161 708h60v-228h-60v228z" />
    <glyph glyph-name="numbersign" unicode="#" 
d="M340 433h-138l-21 -156h138zM121 229h-108v48h115l22 156h-108v48h115l30 227h52l-31 -227h139l31 227h52l-31 -227h108v-48h-115l-21 -156h108v-48h-115l-30 -229h-52l30 229h-139l-30 -229h-52z" />
    <glyph glyph-name="dollar" unicode="$" 
d="M233 -12q-27 0 -55 6.5t-54.5 20t-49.5 33t-41 45.5l57 39q24 -41 62 -64.5t81 -25.5v290l-71 26q-37 13 -59.5 35t-35 46t-16.5 47t-4 40q0 42 16.5 76.5t43.5 59.5t60 40t66 18v67h48v-67q25 0 50 -3.5t48.5 -13.5t45 -27.5t41.5 -44.5l-55 -40q-23 36 -58.5 55.5
t-71.5 19.5v-282l70 -24q22 -8 45 -22t41.5 -35.5t30 -51.5t11.5 -70q0 -43 -16.5 -77.5t-44 -59.5t-63.5 -39.5t-74 -16.5v-67h-48v67zM233 666q-24 -4 -45.5 -15t-38 -28.5t-26.5 -41t-10 -51.5q0 -53 28 -80t75 -44l17 -6v266zM281 42q28 1 52 12.5t42 30.5t28 44.5
t10 55.5q0 15 -4 31t-13.5 31t-27 28t-44.5 23l-43 16v-272z" />
    <glyph glyph-name="percent" unicode="%" horiz-adv-x="815" 
d="M487 160q0 -25 9.5 -46.5t25.5 -37.5t37.5 -25t45.5 -9t45.5 9t37.5 25t25.5 37.5t9.5 46.5t-9.5 46.5t-25.5 37.5t-37.5 25t-45.5 9t-45.5 -9t-37.5 -25t-25.5 -37.5t-9.5 -46.5zM433 160q0 36 13.5 67t37 54.5t54.5 37t67 13.5t67 -13.5t54.5 -37t37 -54.5t13.5 -67
t-13.5 -67t-37 -54.5t-54.5 -37t-67 -13.5t-67 13.5t-54.5 37t-37 54.5t-13.5 67zM92 548q0 -25 9.5 -46.5t25.5 -37.5t37.5 -25t45.5 -9t45.5 9t37.5 25t25.5 37.5t9.5 46.5t-9.5 46.5t-25.5 37.5t-37.5 25t-45.5 9t-45.5 -9t-37.5 -25t-25.5 -37.5t-9.5 -46.5zM38 548
q0 36 13.5 67t37 54.5t54.5 37t67 13.5t67 -13.5t54.5 -37t37 -54.5t13.5 -67t-13.5 -67t-37 -54.5t-54.5 -37t-67 -13.5t-67 13.5t-54.5 37t-37 54.5t-13.5 67zM614 742l46 -28l-457 -748l-45 28z" />
    <glyph glyph-name="ampersand" unicode="&#x26;" horiz-adv-x="704" 
d="M259 355q-24 -14 -47.5 -30t-43 -35.5t-31.5 -44t-12 -55.5q0 -34 12.5 -61t34 -46.5t51 -30t62.5 -10.5q28 0 52.5 9t45.5 24t39 34.5t33 41.5zM308 666q-45 0 -76 -27.5t-31 -72.5q0 -18 7.5 -37t19 -37t25 -34l24.5 -29l44 24t42 30t31.5 38.5t12.5 49.5
q0 42 -28 68.5t-71 26.5zM487 206l102 184h68l-128 -226l161 -169h-89l-106 114q-43 -58 -94.5 -92.5t-125.5 -34.5q-45 0 -84.5 14.5t-68.5 41.5t-46 65t-17 85q0 41 14 72t36.5 55t51.5 43.5l60 38.5l-30.5 37.5t-27.5 40.5t-20 43.5t-8 46.5q0 38 14.5 68t39 50.5
t57 31.5t67.5 11q31 0 60 -11t51.5 -30.5t35.5 -47t13 -61.5q0 -38 -13.5 -66t-36 -50t-50.5 -39t-58 -33z" />
    <glyph glyph-name="quoteright" unicode="&#x2019;" horiz-adv-x="260" 
d="M125 708h73l-77 -228h-59z" />
    <glyph glyph-name="parenleft" unicode="(" horiz-adv-x="260" 
d="M248 700q-33 -41 -57 -91.5t-40.5 -104.5t-24.5 -109t-8 -107q0 -117 34 -217t96 -197l-47 -30q-35 48 -61.5 102.5t-44.5 111.5t-27.5 115t-9.5 115q0 119 36.5 235t102.5 209z" />
    <glyph glyph-name="parenright" unicode=")" horiz-adv-x="260" 
d="M12 -124q33 41 57 91t40.5 104t24.5 109.5t8 107.5q0 58 -9 112t-25.5 105t-40.5 99.5t-55 97.5l47 30q35 -48 61.5 -102.5t44.5 -111.5t27.5 -115t9.5 -115q0 -119 -36.5 -235t-102.5 -209z" />
    <glyph glyph-name="asterisk" unicode="*" horiz-adv-x="444" 
d="M247 556l144 48l15 -48l-144 -47l91 -122l-37 -29l-94 125l-89 -125l-40 29l91 122l-146 50l14 45l147 -48v152h48v-152z" />
    <glyph glyph-name="plus" unicode="+" horiz-adv-x="666" 
d="M78 327h231v231h48v-231h231v-48h-231v-231h-48v231h-231v48z" />
    <glyph glyph-name="comma" unicode="," horiz-adv-x="260" 
d="M116 90h70l-77 -228h-59z" />
    <glyph glyph-name="hyphen" unicode="-" horiz-adv-x="333" 
d="M43 264h247v-54h-247v54z" />
    <glyph glyph-name="hyphen" unicode="&#xad;" horiz-adv-x="333" 
d="M43 264h247v-54h-247v54z" />
    <glyph glyph-name="period" unicode="." horiz-adv-x="260" 
d="M82 42q0 20 14 34t34 14t34 -14t14 -34t-14 -34t-34 -14t-34 14t-14 34z" />
    <glyph glyph-name="slash" unicode="/" horiz-adv-x="370" 
d="M313 744l52 -18l-303 -762l-53 18z" />
    <glyph glyph-name="zero" unicode="0" 
d="M92 354q0 -28 2 -61.5t8 -68t17.5 -67.5t30 -58.5t45.5 -41t65 -15.5q37 0 64.5 15.5t46 41t30 58.5t17.5 67.5t8 68t2 61.5q0 27 -2 61t-8 68.5t-17.5 67.5t-30 58.5t-46 41t-64.5 15.5t-64.5 -15.5t-46 -41t-30 -58.5t-17.5 -67.5t-8 -68.5t-2 -61zM26 354
q0 38 3.5 80.5t13 83t26 77t42.5 64.5t62.5 44.5t86.5 16.5t86.5 -16.5t62.5 -44.5t42.5 -64.5t26 -77t13 -83t3.5 -80.5q0 -39 -3.5 -81t-13 -82.5t-26 -77t-42.5 -64.5t-62.5 -44.5t-86.5 -16.5t-86.5 16.5t-62.5 44.5t-42.5 64.5t-26 77t-13 82.5t-3.5 81z" />
    <glyph glyph-name="one" unicode="1" 
d="M261 624h-1l-128 -105l-37 46l175 143h51v-708h-60v624z" />
    <glyph glyph-name="two" unicode="2" 
d="M41 70l266 281q18 18 36 38.5t32.5 43t23.5 47.5t9 54q0 62 -40 97t-101 35q-55 0 -93 -32t-49 -84l-70 7q17 82 75 122.5t140 40.5q41 0 78 -12.5t65 -35.5t44.5 -56.5t16.5 -76.5q0 -41 -12.5 -76t-33 -66.5t-47 -59.5l-53.5 -56l-221 -227h372v-54h-438v70z" />
    <glyph glyph-name="three" unicode="3" 
d="M106 148q20 -51 54.5 -78.5t94.5 -27.5q39 0 69 12t49.5 33t29.5 49t10 60q0 39 -16.5 67t-43 45.5t-60 25.5t-67.5 8h-26v60h30q28 0 56.5 7.5t51 23.5t36.5 41.5t14 61.5q0 57 -35.5 93.5t-95.5 36.5q-44 0 -79 -22.5t-55 -60.5l-57 32q29 55 79.5 80t111.5 25
q40 0 76 -11.5t63 -34t42.5 -56.5t15.5 -80q0 -58 -32 -102.5t-94 -61.5v-2q34 -6 61.5 -22.5t47.5 -40.5t31 -54t11 -64q0 -42 -13.5 -79t-41 -64.5t-68.5 -43.5t-96 -16q-80 0 -135.5 33.5t-83.5 105.5z" />
    <glyph glyph-name="four" unicode="4" 
d="M329 642h-2l-250 -414h252v414zM329 174h-306v71l283 463h83v-480h108v-54h-108v-174h-60v174z" />
    <glyph glyph-name="five" unicode="5" 
d="M451 654h-292l-3 -225q23 12 50 16t53 4q51 0 91.5 -18.5t69 -50.5t44 -74.5t15.5 -90.5q0 -57 -20.5 -100t-53.5 -71t-73 -42t-79 -14q-78 0 -130.5 32t-81.5 88l62 31q9 -20 24.5 -37.5t35.5 -31t43 -21t47 -7.5t52 10.5t52 31.5t40 53t16 74q0 38 -13.5 71.5
t-37.5 58.5t-56.5 39.5t-70.5 14.5t-74 -13.5t-66 -34.5l6 361h350v-54z" />
    <glyph glyph-name="six" unicode="6" 
d="M260 374q-35 0 -65 -13t-52.5 -35.5t-35.5 -53t-13 -64.5q0 -37 12 -67.5t34 -52.5t52.5 -34t67.5 -12t67.5 12t52.5 34t34 52.5t12 67.5q0 34 -13 64.5t-35.5 53t-53 35.5t-64.5 13zM168 396h2q18 15 48.5 22.5t56.5 7.5q47 0 87 -17t69 -46.5t45 -69t16 -85.5
q0 -48 -17.5 -88.5t-48.5 -69.5t-73.5 -45.5t-92.5 -16.5t-92.5 16.5t-73.5 45.5t-48.5 69.5t-17.5 88.5q0 28 6 53t16 47.5t21 42.5t22 38l192 319h76z" />
    <glyph glyph-name="seven" unicode="7" 
d="M443 654l-282 -654h-67l287 654h-340v54h402v-54z" />
    <glyph glyph-name="eight" unicode="8" 
d="M107 197q0 -32 11 -60t31 -49t48 -33.5t63 -12.5t63 12.5t48 33.5t31 49t11 60q0 35 -12 63.5t-32.5 49t-48.5 31.5t-60 11t-60 -11t-48.5 -31.5t-32.5 -49t-12 -63.5zM132 536q0 -27 9.5 -50.5t26 -41t40 -28t52.5 -10.5q28 0 52 10.5t40.5 28t26 41t9.5 50.5
q0 59 -36.5 94.5t-91.5 35.5t-91.5 -35.5t-36.5 -94.5zM66 536q0 41 15 75t41 58t61.5 37.5t76.5 13.5t76.5 -13.5t61.5 -37.5t41 -58t15 -75q0 -25 -8 -49.5t-22.5 -46t-35.5 -37.5t-47 -23v-1q34 -7 59.5 -24.5t43 -42t26.5 -54t9 -61.5q0 -48 -16.5 -86.5t-46 -65.5
t-69.5 -42t-87 -15t-87 15t-69.5 42t-46 65.5t-16.5 86.5q0 32 9 61.5t26.5 54t43 42t59.5 24.5v1q-26 7 -47 23t-35.5 37.5t-22.5 46t-8 49.5z" />
    <glyph glyph-name="nine" unicode="9" 
d="M260 334q34 0 64.5 13t53 35.5t35.5 52.5t13 65q0 37 -12 67.5t-34 52.5t-52.5 34t-67.5 12t-67.5 -12t-52.5 -34t-34 -52.5t-12 -67.5q0 -35 13 -65t35.5 -52.5t52.5 -35.5t65 -13zM352 312h-2q-18 -15 -48.5 -22.5t-56.5 -7.5q-47 0 -87 17t-69 46.5t-45 69t-16 85.5
q0 48 17.5 88.5t48.5 69.5t73.5 45.5t92.5 16.5t92.5 -16.5t73.5 -45.5t48.5 -69.5t17.5 -88.5q0 -28 -6 -53t-16 -47.5t-21.5 -42.5l-21.5 -38l-192 -319h-76z" />
    <glyph glyph-name="colon" unicode=":" horiz-adv-x="260" 
d="M82 42q0 20 14 34t34 14t34 -14t14 -34t-14 -34t-34 -14t-34 14t-14 34zM82 420q0 20 14 34t34 14t34 -14t14 -34t-14 -34t-34 -14t-34 14t-14 34z" />
    <glyph glyph-name="semicolon" unicode=";" horiz-adv-x="260" 
d="M82 420q0 20 14 34t34 14t34 -14t14 -34t-14 -34t-34 -14t-34 14t-14 34zM116 90h70l-77 -228h-59z" />
    <glyph glyph-name="semicolon" unicode="&#x37e;" horiz-adv-x="260" 
d="M82 420q0 20 14 34t34 14t34 -14t14 -34t-14 -34t-34 -14t-34 14t-14 34zM116 90h70l-77 -228h-59z" />
    <glyph glyph-name="less" unicode="&#x3c;" horiz-adv-x="666" 
d="M584 511l-448 -208l448 -208v-50l-502 234v48l502 234v-50z" />
    <glyph glyph-name="equal" unicode="=" horiz-adv-x="666" 
d="M78 255h510v-48h-510v48zM78 399h510v-48h-510v48z" />
    <glyph glyph-name="greater" unicode="&#x3e;" horiz-adv-x="666" 
d="M82 95l448 208l-448 208v50l502 -234v-48l-502 -234v50z" />
    <glyph glyph-name="question" unicode="?" horiz-adv-x="463" 
d="M187 42q0 20 14 34t34 14t34 -14t14 -34t-14 -34t-34 -14t-34 14t-14 34zM204 270q0 33 11.5 58t29 45t37.5 38t37.5 38.5t29 44.5t11.5 57q0 54 -31 87.5t-86 33.5q-53 0 -86.5 -32t-44.5 -84l-65 8q14 77 67 119.5t128 42.5q39 0 73 -11.5t58.5 -33.5t38.5 -54t14 -73
q0 -42 -12 -71t-30 -51t-39 -40.5t-39 -38t-30 -44t-12 -59.5v-64h-60v84z" />
    <glyph glyph-name="at" unicode="@" horiz-adv-x="800" 
d="M525 259q-5 -16 -8 -29t-3 -19q0 -8 4.5 -17t21.5 -9q26 0 54.5 22t52.5 56.5t39.5 77.5t15.5 85q0 56 -23.5 102.5t-63 79.5t-91.5 51.5t-108 18.5q-68 0 -126.5 -26.5t-101 -71t-66.5 -103t-24 -122.5q0 -67 25 -126t68.5 -103.5t102 -70t124.5 -25.5q37 0 74 10
t70.5 27.5t61.5 41.5t48 53h58q-23 -42 -57 -75t-75 -56.5t-87 -36t-93 -12.5q-81 0 -150 29t-118.5 79.5t-77.5 118.5t-28 146t29 145.5t79 118t117.5 79t144.5 28.5q73 0 135.5 -23t108.5 -63t72 -95t26 -119q0 -62 -20.5 -116t-54 -94t-75.5 -62.5t-84 -22.5
q-26 0 -44 16.5t-18 50.5h-2q-20 -25 -55 -46t-74 -21q-34 0 -59 11.5t-42 32t-25.5 47t-8.5 56.5q0 52 16.5 104t47 93t74 67t98.5 26q33 0 62.5 -18.5t43.5 -64.5h2l24 64h60zM254 280q0 -42 22.5 -68.5t61.5 -26.5q35 0 66 23t54 57.5t36 74t13 72.5q0 48 -19.5 75
t-61.5 27q-38 0 -69.5 -23t-54.5 -58t-35.5 -76t-12.5 -77z" />
    <glyph glyph-name="A" unicode="A" horiz-adv-x="685" 
d="M345 636l-165 -388h325zM314 708h68l298 -708h-74l-77 188h-375l-80 -188h-69z" />
    <glyph glyph-name="B" unicode="B" horiz-adv-x="630" 
d="M163 60h151q58 0 93.5 14t54.5 35t25.5 44.5t6.5 42.5q0 39 -15 67t-39 45.5t-54.5 25.5t-61.5 8h-161v-282zM163 402h137q51 0 83 12.5t50 30.5t24 38.5t6 37.5q0 37 -12.5 61.5t-33.5 39t-49 20.5t-59 6h-146v-246zM97 708h204q40 0 81 -6.5t73.5 -27t53 -57
t20.5 -96.5q0 -54 -32 -94t-95 -53v-2q35 -3 64 -16.5t50 -36t32.5 -53.5t11.5 -68q0 -61 -23.5 -99.5t-59 -60.5t-77 -30t-77.5 -8h-226v708z" />
    <glyph glyph-name="C" unicode="C" horiz-adv-x="704" 
d="M680 111q-51 -69 -118 -99t-145 -30q-81 0 -148.5 27.5t-115.5 77t-75 118t-27 149.5t27 149t75 117.5t115.5 77.5t148.5 28q72 0 134.5 -25.5t109.5 -85.5l-54 -45q-33 50 -84.5 73t-105.5 23q-69 0 -124.5 -24t-94.5 -66t-60 -99t-21 -123t21 -123t60 -99t94.5 -66
t124.5 -24q27 0 56 6.5t56.5 20t52.5 34t44 49.5z" />
    <glyph glyph-name="D" unicode="D" horiz-adv-x="741" 
d="M154 60h136q70 0 131 17.5t106 53.5t71 91.5t26 131.5t-26 131.5t-71 91.5t-106 53.5t-131 17.5h-136v-588zM88 708h219q92 0 156 -22.5t106.5 -57.5t67 -77.5t36 -81.5t14.5 -70.5t3 -44.5t-3 -44.5t-14.5 -70.5t-36 -81.5t-67 -77.5t-106.5 -57.5t-156 -22.5h-219v708z
" />
    <glyph glyph-name="E" unicode="E" horiz-adv-x="593" 
d="M97 708h433v-60h-367v-252h344v-60h-344v-276h383v-60h-449v708z" />
    <glyph glyph-name="F" unicode="F" horiz-adv-x="556" 
d="M97 708h424v-60h-358v-252h333v-60h-333v-336h-66v708z" />
    <glyph glyph-name="G" unicode="G" horiz-adv-x="778" 
d="M681 46q-62 -35 -128.5 -49.5t-135.5 -14.5q-81 0 -148.5 27.5t-115.5 77t-75 118t-27 149.5t27 149t75 117.5t115.5 77.5t148.5 28q158 0 255 -98l-48 -50q-16 19 -39.5 35.5t-51 28t-57.5 18t-59 6.5q-69 0 -124.5 -24t-94.5 -66t-60 -99t-21 -123t21 -123t60 -99
t94.5 -66t124.5 -24q57 0 107 9t91 33v238h-170v60h236v-336z" />
    <glyph glyph-name="H" unicode="H" horiz-adv-x="722" 
d="M97 708h66v-312h396v312h66v-708h-66v336h-396v-336h-66v708z" />
    <glyph glyph-name="I" unicode="I" horiz-adv-x="260" 
d="M97 708h66v-708h-66v708z" />
    <glyph glyph-name="J" unicode="J" horiz-adv-x="482" 
d="M385 208q0 -32 -4.5 -71t-24 -73.5t-58 -58t-107.5 -23.5q-78 0 -123.5 39.5t-60.5 105.5l66 12q24 -97 118 -97q35 0 59.5 11.5t39.5 31.5t22 47.5t7 59.5v516h66v-500z" />
    <glyph glyph-name="K" unicode="K" horiz-adv-x="611" 
d="M97 708h66v-312h6l343 312h91l-358 -324l378 -384h-95l-359 366h-6v-366h-66v708z" />
    <glyph glyph-name="L" unicode="L" horiz-adv-x="500" 
d="M97 708h66v-648h330v-60h-396v708z" />
    <glyph glyph-name="M" unicode="M" horiz-adv-x="889" 
d="M90 708h99l258 -594l258 594h94v-708h-66v624h-2l-270 -624h-29l-274 624h-2v-624h-66v708z" />
    <glyph glyph-name="N" unicode="N" horiz-adv-x="778" 
d="M97 708h85l431 -620h2v620h66v-708h-85l-431 620h-2v-620h-66v708z" />
    <glyph glyph-name="O" unicode="O" horiz-adv-x="834" 
d="M117 354q0 -66 21 -123t60 -99t94.5 -66t124.5 -24t124.5 24t94.5 66t60 99t21 123t-21 123t-60 99t-94.5 66t-124.5 24t-124.5 -24t-94.5 -66t-60 -99t-21 -123zM51 354q0 81 27 149t75 117.5t115.5 77.5t148.5 28t148.5 -28t115.5 -77.5t75 -117.5t27 -149t-27 -149.5
t-75 -118t-115.5 -77t-148.5 -27.5t-148.5 27.5t-115.5 77t-75 118t-27 149.5z" />
    <glyph glyph-name="P" unicode="P" horiz-adv-x="574" 
d="M163 396h150q28 0 55 6.5t48 21t34 38.5t13 59q0 34 -13.5 58t-35 39.5t-49.5 22.5t-56 7h-146v-252zM97 708h204q37 0 77.5 -8.5t74 -29.5t55 -57.5t21.5 -91.5q0 -48 -17.5 -83t-47 -57.5t-68 -33.5t-80.5 -11h-153v-336h-66v708z" />
    <glyph glyph-name="Q" unicode="Q" horiz-adv-x="834" 
d="M117 363q0 -62 22.5 -117.5t63 -96.5t96 -65t122.5 -24q68 0 120.5 25.5t88.5 67.5t54.5 96.5t18.5 113.5q0 64 -20 119.5t-57.5 96.5t-92 64t-123.5 23t-123.5 -23t-92 -64t-57.5 -96.5t-20 -119.5zM813 0h-390q-74 0 -141.5 26t-118.5 73.5t-81.5 114.5t-30.5 149
q0 77 25.5 143.5t72 115t113 76.5t148.5 28t148.5 -28t113 -76.5t72 -115t25.5 -143.5q0 -47 -12 -93.5t-35 -87.5t-56 -72.5t-74 -47.5v-2h221v-60z" />
    <glyph glyph-name="R" unicode="R" horiz-adv-x="593" 
d="M97 708h186q14 0 38 -1t52 -6t57 -16t52 -32t38 -53t15 -78q0 -51 -17.5 -84t-44 -53.5t-58.5 -30.5t-61 -14l206 -340h-75l-199 336h-123v-336h-66v708zM163 396h140q52 0 84.5 13t50.5 32t24.5 41t6.5 40t-6.5 40t-24.5 41t-50.5 32t-84.5 13h-140v-252z" />
    <glyph glyph-name="S" unicode="S" horiz-adv-x="556" 
d="M116 131q26 -45 67.5 -67t94.5 -22q33 0 62 10t50.5 28t34 43.5t12.5 57.5q0 37 -15.5 61t-41.5 39.5t-58.5 26.5l-67 22t-67 25t-58.5 36.5t-41.5 56.5t-15.5 84q0 47 18.5 83.5t50 61t72.5 37t86 12.5q58 0 107.5 -20.5t85.5 -68.5l-57 -41q-25 35 -58.5 52.5
t-79.5 17.5q-32 0 -61 -8.5t-50.5 -25t-34.5 -41.5t-13 -59q0 -53 27 -81.5t67.5 -45t88 -29t88 -33.5t67.5 -58.5t27 -103.5q0 -48 -18 -85t-48.5 -62.5t-70.5 -38.5t-83 -13q-70 0 -129 24.5t-101 82.5z" />
    <glyph glyph-name="T" unicode="T" horiz-adv-x="574" 
d="M254 648h-242v60h550v-60h-242v-648h-66v648z" />
    <glyph glyph-name="U" unicode="U" horiz-adv-x="684" 
d="M600 271q0 -57 -13 -109t-43.5 -92t-80 -64t-121.5 -24t-121.5 24t-80 64t-43.5 92t-13 109v437h66v-420q0 -38 7 -81t27.5 -80t58 -61t99.5 -24t99.5 24t58 61t27.5 80t7 81v420h66v-437z" />
    <glyph glyph-name="V" unicode="V" horiz-adv-x="593" 
d="M-3 708h71l228 -621l230 621h70l-269 -708h-66z" />
    <glyph glyph-name="W" unicode="W" horiz-adv-x="944" 
d="M5 708h68l176 -627h2l179 627h84l179 -627h2l176 627h68l-206 -708h-81l-179 630h-2l-179 -630h-81z" />
    <glyph glyph-name="X" unicode="X" horiz-adv-x="611" 
d="M267 372l-242 336h78l204 -288l201 288h79l-240 -336l263 -372h-82l-224 320l-224 -320h-79z" />
    <glyph glyph-name="Y" unicode="Y" horiz-adv-x="574" 
d="M254 305l-260 403h79l214 -336l219 336h74l-260 -403v-305h-66v305z" />
    <glyph glyph-name="Z" unicode="Z" horiz-adv-x="556" 
d="M23 52l414 596h-408v60h493v-54l-417 -594h428v-60h-510v52z" />
    <glyph glyph-name="bracketleft" unicode="[" horiz-adv-x="260" 
d="M224 684h-90v-792h90v-48h-150v888h150v-48z" />
    <glyph glyph-name="backslash" unicode="\" horiz-adv-x="370" 
d="M361 -18l-53 -18l-303 762l52 18z" />
    <glyph glyph-name="bracketright" unicode="]" horiz-adv-x="260" 
d="M36 -108h90v792h-90v48h150v-888h-150v48z" />
    <glyph glyph-name="asciicircum" unicode="^" horiz-adv-x="666" 
d="M310 708h46l228 -452h-56l-195 398l-194 -398h-57z" />
    <glyph glyph-name="underscore" unicode="_" horiz-adv-x="500" 
d="M0 -75h500v-50h-500v50z" />
    <glyph glyph-name="quoteleft" unicode="&#x2018;" horiz-adv-x="260" 
d="M134 480h-72l76 228h60z" />
    <glyph glyph-name="a" unicode="a" horiz-adv-x="519" 
d="M319 232q-38 0 -73.5 -5t-64 -17t-45.5 -32t-17 -50q0 -21 9.5 -37.5t24.5 -27t33.5 -16t37.5 -5.5q48 0 79 14t49.5 36.5t25.5 51t7 57.5v31h-66zM439 194q0 -34 0.5 -61t1.5 -50t2.5 -43t4.5 -40h-56q-6 34 -6 75h-2q-26 -45 -64.5 -66t-97.5 -21q-30 0 -59 7.5t-52 24
t-37.5 42.5t-14.5 63q0 53 27 84t66.5 46.5t84 20t78.5 4.5h70v28q0 60 -37 86t-93 26q-80 0 -141 -52l-35 41q33 32 82 48.5t94 16.5q84 0 134 -39.5t50 -127.5v-113z" />
    <glyph glyph-name="b" unicode="b" horiz-adv-x="611" 
d="M121 231q0 -39 15 -73.5t41 -60t61 -40.5t76 -15q42 0 76 15t58 40.5t36.5 60t12.5 73.5t-12.5 73.5t-36.5 60t-58 40.5t-76 15q-41 0 -76 -15t-61 -40.5t-41 -60t-15 -73.5zM67 756h60v-375h2q14 24 35 41.5t45.5 29t51.5 17t53 5.5q53 0 97.5 -18t77 -50.5t50.5 -77
t18 -97.5t-18 -97.5t-50.5 -77t-77 -50.5t-97.5 -18q-26 0 -53 5.5t-51.5 17t-45.5 29t-35 41.5h-2v-81h-60v756z" />
    <glyph glyph-name="c" unicode="c" horiz-adv-x="481" 
d="M467 68q-34 -41 -77 -60.5t-93 -19.5q-53 0 -98 18t-77 50.5t-50 77t-18 97.5t18 97.5t50 77t77 50.5t98 18q51 0 94.5 -21t77.5 -59l-48 -36q-26 29 -57 45.5t-67 16.5q-42 0 -76 -15t-58 -40.5t-36.5 -60t-12.5 -73.5t12.5 -73.5t36.5 -60t58 -40.5t76 -15
q38 0 69.5 17.5t54.5 46.5z" />
    <glyph glyph-name="d" unicode="d" horiz-adv-x="611" 
d="M490 231q0 39 -15 73.5t-41 60t-61 40.5t-76 15q-42 0 -76 -15t-58 -40.5t-36.5 -60t-12.5 -73.5t12.5 -73.5t36.5 -60t58 -40.5t76 -15q41 0 76 15t61 40.5t41 60t15 73.5zM484 81h-2q-14 -24 -35 -41.5t-45.5 -29t-51.5 -17t-53 -5.5q-53 0 -98 18t-77 50.5t-50 77
t-18 97.5t18 97.5t50 77t77 50.5t98 18q26 0 53 -5.5t51.5 -17t45.5 -29t35 -41.5h2v375h60v-756h-60v81z" />
    <glyph glyph-name="e" unicode="e" horiz-adv-x="556" 
d="M442 270q0 31 -12.5 58t-34 47.5t-51 32.5t-62.5 12q-49 0 -81.5 -20t-51.5 -46t-27 -50.5t-8 -33.5h328zM488 87q-35 -53 -86.5 -76t-113.5 -23q-53 0 -96 18t-74 50.5t-47.5 77t-16.5 98.5q0 52 17 96t48 76.5t73 51t93 18.5q53 0 93.5 -18.5t68 -49t41.5 -69.5t14 -79
v-42h-388q0 -19 7.5 -48.5t27.5 -57.5t53.5 -48t86.5 -20q46 0 89 22t66 60z" />
    <glyph glyph-name="f" unicode="f" horiz-adv-x="296" 
d="M114 408h-96v54h96v151q0 45 13.5 74.5t33.5 47.5t44.5 25.5t46.5 7.5q42 0 69 -12l-12 -52q-20 10 -54 10q-81 0 -81 -123v-129h108v-54h-108v-408h-60v408z" />
    <glyph glyph-name="g" unicode="g" horiz-adv-x="611" 
d="M486 237q0 38 -14.5 71.5t-39 58t-58 39t-71.5 14.5t-71.5 -14.5t-58 -39t-39 -58t-14.5 -71.5t14.5 -71.5t39 -58t58 -39t71.5 -14.5t71.5 14.5t58 39t39 58t14.5 71.5zM544 30q0 -86 -25 -139t-62.5 -82t-80.5 -39t-78 -10t-68.5 6.5t-63.5 19t-54.5 30.5t-42.5 41
l47 44q32 -45 80 -66t102 -21q46 0 77.5 12t52 31.5t32 43t17 47t6.5 44.5t1 34v64h-2q-26 -42 -70.5 -66t-104.5 -24q-51 0 -96 18.5t-78.5 51t-53 75.5t-19.5 92t19.5 92t53 75t78.5 51t96 19q60 0 104.5 -24t70.5 -66h2v78h60v-432z" />
    <glyph glyph-name="h" unicode="h" horiz-adv-x="556" 
d="M80 756h60v-375h2q18 38 60 65.5t98 27.5q54 0 88 -17t53.5 -44.5t27 -63.5t7.5 -74v-275h-60v272q0 28 -5 54.5t-17.5 47.5t-35 33.5t-58.5 12.5q-33 0 -62.5 -11.5t-51 -35t-34 -59t-12.5 -83.5v-231h-60v756z" />
    <glyph glyph-name="i" unicode="i" horiz-adv-x="240" 
d="M75 645q0 19 13 32t32 13t32 -13t13 -32t-13 -32t-32 -13t-32 13t-13 32zM90 462h60v-462h-60v462z" />
    <glyph glyph-name="j" unicode="j" horiz-adv-x="240" 
d="M75 645q0 19 13 32t32 13t32 -13t13 -32t-13 -32t-32 -13t-32 13t-13 32zM150 -81q0 -36 -5.5 -65t-20.5 -50t-40.5 -32.5t-65.5 -11.5q-24 0 -48 9l9 53q21 -8 38 -8q24 0 38.5 8.5t22 22t10 31.5t2.5 38v548h60v-543z" />
    <glyph glyph-name="k" unicode="k" horiz-adv-x="481" 
d="M80 756h60v-504l228 209h88l-238 -211l266 -250h-91l-253 244v-244h-60v756z" />
    <glyph glyph-name="l" unicode="l" horiz-adv-x="240" 
d="M90 756h60v-756h-60v756z" />
    <glyph glyph-name="m" unicode="m" horiz-adv-x="852" 
d="M80 332q0 13 -1 31.5t-1.5 37.5t-1.5 35.5t-1 25.5h60q1 -26 1.5 -50t2.5 -31h3q18 38 60 65.5t98 27.5q46 0 84 -23.5t55 -76.5q22 52 65.5 76t91.5 24q54 0 88 -17t53.5 -44.5t27 -63.5t7.5 -74v-275h-60v272q0 28 -5 54.5t-17.5 47.5t-35 33.5t-58.5 12.5
q-42 0 -69 -15.5t-42.5 -39.5t-22 -52t-6.5 -53v-260h-60v278q0 64 -23.5 103t-72.5 39q-33 0 -62.5 -11.5t-51 -35t-34 -59t-12.5 -83.5v-231h-60v332z" />
    <glyph glyph-name="n" unicode="n" horiz-adv-x="556" 
d="M80 332q0 13 -1 31.5t-1.5 37.5t-1.5 35.5t-1 25.5h60q1 -26 1.5 -50t2.5 -31h3q18 38 60 65.5t98 27.5q54 0 88 -17t53.5 -44.5t27 -63.5t7.5 -74v-275h-60v272q0 28 -5 54.5t-17.5 47.5t-35 33.5t-58.5 12.5q-33 0 -62.5 -11.5t-51 -35t-34 -59t-12.5 -83.5v-231h-60
v332z" />
    <glyph glyph-name="o" unicode="o" horiz-adv-x="594" 
d="M114 231q0 -39 12.5 -73.5t36.5 -60t58 -40.5t76 -15t76 15t58 40.5t36.5 60t12.5 73.5t-12.5 73.5t-36.5 60t-58 40.5t-76 15t-76 -15t-58 -40.5t-36.5 -60t-12.5 -73.5zM54 231q0 53 18 97.5t50 77t77 50.5t98 18t97.5 -18t77 -50.5t50.5 -77t18 -97.5t-18 -97.5
t-50.5 -77t-77 -50.5t-97.5 -18t-98 18t-77 50.5t-50 77t-18 97.5z" />
    <glyph glyph-name="p" unicode="p" horiz-adv-x="611" 
d="M121 231q0 -39 15 -73.5t41 -60t61 -40.5t76 -15q42 0 76 15t58 40.5t36.5 60t12.5 73.5t-12.5 73.5t-36.5 60t-58 40.5t-76 15q-41 0 -76 -15t-61 -40.5t-41 -60t-15 -73.5zM67 462h60v-81h2q14 24 35 41.5t45.5 29t51.5 17t53 5.5q53 0 97.5 -18t77 -50.5t50.5 -77
t18 -97.5t-18 -97.5t-50.5 -77t-77 -50.5t-97.5 -18q-26 0 -53 5.5t-51.5 17t-45.5 29t-35 41.5h-2v-309h-60v690z" />
    <glyph glyph-name="q" unicode="q" horiz-adv-x="611" 
d="M490 231q0 39 -15 73.5t-41 60t-61 40.5t-76 15q-42 0 -76 -15t-58 -40.5t-36.5 -60t-12.5 -73.5t12.5 -73.5t36.5 -60t58 -40.5t76 -15q41 0 76 15t61 40.5t41 60t15 73.5zM484 81h-2q-14 -24 -35 -41.5t-45.5 -29t-51.5 -17t-53 -5.5q-53 0 -98 18t-77 50.5t-50 77
t-18 97.5t18 97.5t50 77t77 50.5t98 18q26 0 53 -5.5t51.5 -17t45.5 -29t35 -41.5h2v81h60v-690h-60v309z" />
    <glyph glyph-name="r" unicode="r" horiz-adv-x="333" 
d="M80 332q0 13 -1 31.5t-1.5 37.5t-1.5 35.5t-1 25.5h60q1 -26 1.5 -50t2.5 -31q23 41 59 67t88 26q9 0 17.5 -1.5t17.5 -3.5l-7 -59q-12 4 -23 4q-39 0 -67.5 -12.5t-47 -34.5t-27.5 -51.5t-9 -63.5v-252h-60v332z" />
    <glyph glyph-name="s" unicode="s" horiz-adv-x="426" 
d="M81 118q19 -37 56 -56.5t78 -19.5q19 0 38 6t34 17t24.5 26.5t9.5 35.5q0 32 -20.5 48t-50.5 25t-66 15.5t-66 20t-50.5 37.5t-20.5 68q0 34 14 59t36.5 41.5t50.5 24.5t57 8q57 0 98.5 -21t64.5 -66l-54 -32q-17 32 -42.5 48.5t-66.5 16.5q-16 0 -33.5 -5t-31.5 -14
t-23.5 -23t-9.5 -32q0 -31 20.5 -46t50.5 -23.5t66 -14.5t66 -19.5t50.5 -39t20.5 -72.5q0 -36 -13.5 -62.5t-37 -44.5t-53.5 -27t-63 -9q-60 0 -109.5 23t-76.5 71z" />
    <glyph glyph-name="t" unicode="t" horiz-adv-x="333" 
d="M306 408h-132v-301q0 -31 17 -48t47 -17q17 0 34.5 4.5t33.5 11.5l5 -54q-17 -6 -39 -11t-39 -5q-32 0 -55 9.5t-37 25.5t-20.5 37.5t-6.5 46.5v301h-100v54h100v133h60v-133h132v-54z" />
    <glyph glyph-name="u" unicode="u" horiz-adv-x="556" 
d="M471 130q0 -13 1 -31.5t1.5 -37.5t1.5 -35.5t1 -25.5h-60q-1 26 -1.5 50t-2.5 31h-3q-18 -38 -60 -65.5t-98 -27.5q-54 0 -88.5 17t-54 44.5t-26.5 63.5t-7 74v275h60v-272q0 -28 5 -54.5t17.5 -47.5t35 -33.5t58.5 -12.5q33 0 62.5 11.5t51 35t34 59t12.5 83.5v231h60
v-332z" />
    <glyph glyph-name="v" unicode="v" horiz-adv-x="463" 
d="M15 462h68l154 -397l150 397h61l-182 -462h-62z" />
    <glyph glyph-name="w" unicode="w" horiz-adv-x="704" 
d="M15 462h66l112 -387h2l129 387h57l137 -387h2l109 387h60l-136 -462h-62l-138 378h-2l-129 -378h-62z" />
    <glyph glyph-name="x" unicode="x" horiz-adv-x="481" 
d="M198 250l-165 212h77l128 -175l127 175h75l-163 -212l198 -250h-78l-161 209l-158 -209h-72z" />
    <glyph glyph-name="y" unicode="y" horiz-adv-x="463" 
d="M210 -143q-17 -45 -47 -71t-80 -26q-15 0 -30 2.5t-29 6.5l6 56q13 -4 26.5 -7.5t27.5 -3.5q16 0 28.5 7t21.5 18t15.5 24.5t11.5 27.5l42 107l-188 464h67l153 -389l149 389h64z" />
    <glyph glyph-name="z" unicode="z" horiz-adv-x="426" 
d="M27 36l277 372h-263v54h346v-36l-276 -372h288v-54h-372v36z" />
    <glyph glyph-name="braceleft" unicode="{" horiz-adv-x="333" 
d="M274 684h-23q-15 0 -25.5 -8.5t-17 -22t-9.5 -31t-3 -36.5v-141q0 -39 -9 -67.5t-21 -47.5t-23.5 -29t-16.5 -12v-2q5 -3 16.5 -13t23.5 -28.5t21 -47t9 -67.5v-142q0 -18 3 -35.5t9.5 -31t17 -22t25.5 -8.5h23v-48h-50q-42 0 -65 32.5t-23 88.5v146q0 29 -3 56.5t-11 49
t-21.5 34.5t-34.5 13v48q21 0 34.5 13t21.5 34.5t11 49.5t3 57v145q0 57 23 89t65 32h50v-48z" />
    <glyph glyph-name="bar" unicode="|" horiz-adv-x="222" 
d="M135 750v-1000h-48v1000h48z" />
    <glyph glyph-name="braceright" unicode="}" horiz-adv-x="333" 
d="M59 -108h23q15 0 25.5 8.5t17 22t9.5 31t3 36.5v141q0 39 9 67.5t21 47.5t23.5 29t16.5 12v2q-5 3 -16.5 13t-23.5 28.5t-21 47t-9 67.5v142q0 18 -3 35.5t-9.5 31t-17 22t-25.5 8.5h-23v48h50q42 0 65 -32.5t23 -88.5v-146q0 -29 3 -56.5t11 -49t21.5 -34.5t34.5 -13
v-48q-21 0 -34.5 -13t-21.5 -34.5t-11 -49.5t-3 -57v-145q0 -57 -23 -89t-65 -32h-50v48z" />
    <glyph glyph-name="asciitilde" unicode="~" horiz-adv-x="666" 
d="M563 332q-8 -17 -19.5 -33.5t-26.5 -29t-34.5 -20t-44.5 -7.5q-28 0 -57.5 12l-57.5 24q-29 13 -54 22.5t-44 9.5q-30 0 -50.5 -21t-37.5 -47l-34 32q8 16 19.5 32t26.5 29t34.5 21t44.5 8q28 0 57.5 -12l57.5 -24q29 -13 54 -22.5t44 -9.5q30 0 50.5 21t37.5 47z" />
    <glyph glyph-name="exclamdown" unicode="&#xa1;" horiz-adv-x="370" 
d="M233 444q0 -20 -14 -34t-34 -14t-34 14t-14 34t14 34t34 14t34 -14t14 -34zM155 300h60v-522h-60v522z" />
    <glyph glyph-name="cent" unicode="&#xa2;" 
d="M304 42q35 2 64.5 19.5t51.5 44.5l46 -38q-63 -77 -162 -80v-69h-48v72q-46 6 -83.5 27t-64.5 53.5t-41.5 73.5t-14.5 88t15 87.5t42 72t64.5 52t82.5 26.5v72h48v-71q49 -1 90.5 -21.5t73.5 -56.5l-48 -36q-23 26 -51 41.5t-65 18.5v-376zM256 417q-35 -5 -61.5 -22
t-45 -42t-28 -56t-9.5 -64t10 -63.5t29 -55.5t45.5 -42.5t59.5 -24.5v370z" />
    <glyph glyph-name="sterling" unicode="&#xa3;" 
d="M58 54h105v288h-95v54h95v117q0 34 11 70.5t36 67t65 50t98 19.5q79 0 143 -56l-40 -48q-21 21 -47.5 35.5t-58.5 14.5q-38 0 -64.5 -14.5t-43.5 -36t-25 -47.5t-8 -48v-124h165v-54h-165v-288h245v-54h-416v54z" />
    <glyph glyph-name="yen" unicode="&#xa5;" 
d="M227 180h-170v48h170v77l-9 16h-161v48h134l-191 339h68l192 -344l195 344h65l-191 -339h134v-48h-161l-9 -16v-77h170v-48h-170v-180h-66v180z" />
    <glyph glyph-name="florin" unicode="&#x192;" 
d="M395 371h-117l-72 -391q-11 -58 -44.5 -91t-98.5 -33q-21 0 -41.5 5t-37.5 19l30 47q11 -9 25 -13t28 -4q40 0 58.5 28.5t28.5 82.5l64 350h-108v48h117l29 154q5 26 14.5 52.5t26.5 47.5t42 34t60 13q49 0 90 -30l-32 -45q-13 9 -27.5 15t-30.5 6q-38 0 -57 -26.5
t-26 -63.5l-29 -157h108v-48z" />
    <glyph glyph-name="section" unicode="&#xa7;" 
d="M125 6q17 -45 50 -67.5t80 -22.5q22 0 44 6t39 18.5t27.5 30.5t10.5 42q0 34 -22 56.5t-55 40t-72 34t-72 39t-55 53t-22 77.5q0 25 8.5 45t23.5 36t34 27.5t40 20.5q-36 22 -59 52t-23 75q0 39 16 68t42.5 49t59.5 30t68 10q25 0 49.5 -5.5t46 -16.5t38 -29t26.5 -43
l-58 -34q-14 34 -41.5 51t-63.5 17q-23 0 -44 -6t-37 -18t-26 -30.5t-10 -42.5q0 -32 21.5 -53.5t53.5 -39t69 -34t69 -38.5t53.5 -52t21.5 -74q0 -46 -25.5 -78.5t-63.5 -53.5q33 -20 54 -51.5t21 -71.5t-15.5 -71t-41.5 -52.5t-59.5 -32.5t-69.5 -11q-31 0 -60.5 7
t-54.5 22t-45 37.5t-32 53.5zM314 175q13 7 26.5 17t24.5 22t18 26.5t7 30.5q0 18 -7 33t-18 27.5t-24 22t-25 15.5l-75 41q-16 -5 -33 -13t-31.5 -19.5t-23.5 -27t-9 -35.5q0 -38 20 -56t48 -32z" />
    <glyph glyph-name="currency" unicode="&#xa4;" 
d="M71 354q0 -40 15 -75t41 -61t60 -41t73 -15t73 15t60 41t41 61t15 75t-15 75t-41 61t-60 41t-73 15t-73 -15t-60 -41t-41 -61t-15 -75zM71 197q-60 65 -60 157t60 157l-57 55l34 37l57 -56q33 26 73 39.5t82 13.5t82 -13.5t73 -39.5l57 56l34 -37l-57 -55q60 -65 60 -157
t-60 -157l57 -55l-34 -37l-57 56q-33 -26 -73 -39.5t-82 -13.5t-82 13.5t-73 39.5l-57 -56l-34 37z" />
    <glyph glyph-name="quotesingle" unicode="'" horiz-adv-x="260" 
d="M100 708h60v-228h-60v228z" />
    <glyph glyph-name="quotedblleft" unicode="&#x201c;" 
d="M352 480h-73l77 228h59zM178 480h-73l77 228h59z" />
    <glyph glyph-name="guillemotleft" unicode="&#xab;" horiz-adv-x="481" 
d="M229 237l137 203l42 -29l-116 -174l118 -176l-44 -27zM63 237l137 203l42 -29l-116 -174l118 -176l-44 -27z" />
    <glyph glyph-name="guilsinglleft" unicode="&#x2039;" horiz-adv-x="315" 
d="M63 237l137 203l42 -29l-116 -174l118 -176l-44 -27z" />
    <glyph glyph-name="guilsinglright" unicode="&#x203a;" horiz-adv-x="315" 
d="M252 237l-137 -203l-42 29l116 174l-118 176l44 27z" />
    <glyph glyph-name="endash" unicode="&#x2013;" horiz-adv-x="500" 
d="M0 264h500v-54h-500v54z" />
    <glyph glyph-name="dagger" unicode="&#x2020;" 
d="M230 461h-192v48h192v199h60v-199h192v-48h-192v-587h-60v587z" />
    <glyph glyph-name="daggerdbl" unicode="&#x2021;" 
d="M230 73h-192v48h192v340h-192v48h192v199h60v-199h192v-48h-192v-340h192v-48h-192v-199h-60v199z" />
    <glyph glyph-name="periodcentered" unicode="&#xb7;" horiz-adv-x="260" 
d="M82 318q0 20 14 34t34 14t34 -14t14 -34t-14 -34t-34 -14t-34 14t-14 34z" />
    <glyph glyph-name="periodcentered" unicode="&#x2219;" horiz-adv-x="260" 
d="M82 318q0 20 14 34t34 14t34 -14t14 -34t-14 -34t-34 -14t-34 14t-14 34z" />
    <glyph glyph-name="paragraph" unicode="&#xb6;" horiz-adv-x="600" 
d="M267 323q-44 0 -82 15t-65.5 41t-43.5 60t-16 73q0 95 58.5 145.5t164.5 50.5h227v-834h-60v786h-123v-786h-60v449z" />
    <glyph glyph-name="bullet" unicode="&#x2022;" horiz-adv-x="500" 
d="M73 354q0 37 14 69t38 56t56 38t69 14t69 -14t56 -38t38 -56t14 -69t-14 -69t-38 -56t-56 -38t-69 -14t-69 14t-56 38t-38 56t-14 69z" />
    <glyph glyph-name="quotesinglbase" unicode="&#x201a;" horiz-adv-x="260" 
d="M125 90h73l-77 -228h-59z" />
    <glyph glyph-name="quotedblbase" unicode="&#x201e;" 
d="M168 90h73l-77 -228h-59zM342 90h73l-77 -228h-59z" />
    <glyph glyph-name="quotedblright" unicode="&#x201d;" 
d="M168 708h73l-77 -228h-59zM342 708h73l-77 -228h-59z" />
    <glyph glyph-name="guillemotright" unicode="&#xbb;" horiz-adv-x="481" 
d="M418 237l-137 -203l-42 29l116 174l-118 176l44 27zM252 237l-137 -203l-42 29l116 174l-118 176l44 27z" />
    <glyph glyph-name="ellipsis" unicode="&#x2026;" horiz-adv-x="1000" 
d="M785 42q0 20 14 34t34 14t34 -14t14 -34t-14 -34t-34 -14t-34 14t-14 34zM452 42q0 20 14 34t34 14t34 -14t14 -34t-14 -34t-34 -14t-34 14t-14 34zM119 42q0 20 14 34t34 14t34 -14t14 -34t-14 -34t-34 -14t-34 14t-14 34z" />
    <glyph glyph-name="perthousand" unicode="&#x2030;" horiz-adv-x="981" 
d="M74 567q0 -22 8 -41t22.5 -33.5t33.5 -22.5t41 -8t41 8t33 22.5t22.5 33.5t8.5 41t-8.5 41t-22.5 33t-33 22.5t-41 8.5t-41 -8.5t-33.5 -22.5t-22.5 -33t-8 -41zM26 567q0 31 12 59t33 49t48.5 33t59.5 12q31 0 59 -12t49 -33t33 -49t12 -59q0 -32 -12 -59.5t-33 -48.5
t-49 -33t-59 -12q-32 0 -59.5 12t-48.5 33t-33 48.5t-12 59.5zM697 141q0 -22 8 -41t22.5 -33.5t33.5 -22.5t41 -8t41 8t33 22.5t22.5 33.5t8.5 41t-8.5 41t-22.5 33t-33 22.5t-41 8.5t-41 -8.5t-33.5 -22.5t-22.5 -33t-8 -41zM649 141q0 31 12 59t33 49t48.5 33t59.5 12
q31 0 59 -12t49 -33t33 -49t12 -59q0 -32 -12 -59.5t-33 -48.5t-49 -33t-59 -12q-32 0 -59.5 12t-48.5 33t-33 48.5t-12 59.5zM354 141q0 -22 8 -41t22.5 -33.5t33.5 -22.5t41 -8t41 8t33 22.5t22.5 33.5t8.5 41t-8.5 41t-22.5 33t-33 22.5t-41 8.5t-41 -8.5t-33.5 -22.5
t-22.5 -33t-8 -41zM306 141q0 31 12 59t33 49t48.5 33t59.5 12q31 0 59 -12t49 -33t33 -49t12 -59q0 -32 -12 -59.5t-33 -48.5t-49 -33t-59 -12q-32 0 -59.5 12t-48.5 33t-33 48.5t-12 59.5zM522 742l46 -28l-457 -748l-45 28z" />
    <glyph glyph-name="questiondown" unicode="&#xbf;" horiz-adv-x="463" 
d="M276 444q0 -20 -14 -34t-34 -14t-34 14t-14 34t14 34t34 14t34 -14t14 -34zM259 216q0 -33 -11.5 -58t-29 -45t-37.5 -38t-37.5 -38.5t-29 -44.5t-11.5 -57q0 -54 31 -87.5t86 -33.5q53 0 86.5 32t44.5 84l65 -8q-14 -77 -67 -119.5t-128 -42.5q-39 0 -73 11.5
t-58.5 33.5t-38.5 54t-14 73q0 42 12 71t30 51t39 40.5t39 38t30 44t12 59.5v64h60v-84z" />
    <glyph glyph-name="grave" unicode="`" horiz-adv-x="240" 
d="M178 564h-50l-134 144h80z" />
    <glyph glyph-name="acute" unicode="&#xb4;" horiz-adv-x="240" 
d="M166 708h80l-134 -144h-50z" />
    <glyph glyph-name="circumflex" unicode="&#x2c6;" horiz-adv-x="240" 
d="M85 708h70l108 -144h-65l-81 108l-81 -108h-59z" />
    <glyph glyph-name="tilde" unicode="&#x2dc;" horiz-adv-x="240" 
d="M-36 581q2 17 9 35.5t18 32.5q11 15 27 24.5t36 9.5t39 -8t36 -17l33 -15.5t30 -7.5q22 0 33 15t15 33h36q-2 -18 -8 -36.5t-16.5 -33t-25 -23.5t-34.5 -9t-38.5 8l-36.5 16l-34.5 16t-31.5 8q-23 0 -34.5 -15t-16.5 -33h-36z" />
    <glyph glyph-name="macron" unicode="&#xaf;" horiz-adv-x="240" 
d="M252 606h-264v48h264v-48z" />
    <glyph glyph-name="macron" unicode="&#x2c9;" horiz-adv-x="240" 
d="M252 606h-264v48h264v-48z" />
    <glyph glyph-name="dieresis" unicode="&#xa8;" horiz-adv-x="240" 
d="M167 652q0 20 14 34t34 14t34 -14t14 -34t-14 -34t-34 -14t-34 14t-14 34zM-23 652q0 20 14 34t34 14t34 -14t14 -34t-14 -34t-34 -14t-34 14t-14 34z" />
    <glyph glyph-name="cedilla" unicode="&#xb8;" horiz-adv-x="240" 
d="M124 -64l2 -2q13 7 31 7q32 0 57.5 -18t25.5 -54q0 -23 -10 -39t-26.5 -26t-36.5 -15t-39 -5q-50 0 -95 21l14 32q33 -17 76 -17q10 0 21 2.5t20.5 7.5t15.5 13t6 20q0 23 -18 32.5t-38 9.5q-23 0 -44 -8l-16 15l63 88h38z" />
    <glyph glyph-name="emdash" unicode="&#x2014;" horiz-adv-x="1000" 
d="M0 264h1000v-54h-1000v54z" />
    <glyph glyph-name="AE" unicode="&#xc6;" horiz-adv-x="926" 
d="M500 648h-12l-261 -400h273v400zM456 708h403v-60h-293v-252h276v-60h-276v-276h301v-60h-367v188h-312l-123 -188h-70z" />
    <glyph glyph-name="ordfeminine" unicode="&#xaa;" horiz-adv-x="337" 
d="M212 560q-21 0 -44 -2t-42 -8t-31.5 -16.5t-12.5 -26.5q0 -18 22.5 -29.5t49.5 -11.5q26 0 44.5 8.5t30 21.5t16.5 28.5t5 28.5v7h-38zM250 602v9q-1 16 -5 28.5t-13.5 21t-25 13t-39.5 4.5q-30 0 -51.5 -9t-42.5 -26l-26 38q48 39 131 39q60 0 90 -24t30 -85v-80
q0 -26 0.5 -51.5t4.5 -49.5h-49q-3 11 -3 22t-1 24h-2q-17 -28 -43 -40t-61 -12q-21 0 -41 4.5t-35.5 14t-24.5 25t-9 37.5q0 29 13.5 48t35.5 30t49 15t54 4h64z" />
    <glyph glyph-name="Oslash" unicode="&#xd8;" horiz-adv-x="834" 
d="M220 111q38 -33 87.5 -51t109.5 -18q69 0 124.5 24t94.5 66t60 99t21 123q0 64 -19.5 119t-55.5 96zM609 601q-38 31 -86 48t-106 17q-69 0 -124.5 -24t-94.5 -66t-60 -99t-21 -123q0 -127 71 -210zM144 97q-45 49 -69 114t-24 143q0 81 27 149t75 117.5t115.5 77.5
t148.5 28q70 0 129 -20.5t106 -58.5l74 81l34 -31l-75 -81q47 -49 72.5 -115.5t25.5 -146.5q0 -81 -27 -149.5t-75 -118t-115.5 -77t-148.5 -27.5q-72 0 -132 21.5t-107 61.5l-75 -81l-35 31z" />
    <glyph glyph-name="OE" unicode="&#x152;" horiz-adv-x="944" 
d="M515 648h-78q-53 0 -108 -17t-100.5 -53t-74.5 -91.5t-29 -132.5q0 -83 31.5 -139t78 -90.5t99.5 -49.5t97 -15h84v588zM581 60h304v-60h-472q-71 0 -135.5 25t-113 71.5t-77 112t-28.5 145.5q0 88 32.5 154t86.5 110.5t123.5 67t143.5 22.5h432v-60h-296v-252h279v-60
h-279v-276z" />
    <glyph glyph-name="ordmasculine" unicode="&#xba;" horiz-adv-x="386" 
d="M82 572q0 -21 8 -40t22.5 -34t35 -23.5t44.5 -8.5t44.5 8.5t35.5 23t23.5 33.5t8.5 41q0 45 -30.5 75.5t-81.5 30.5q-24 0 -44 -8.5t-35 -23.5t-23 -34t-8 -40zM34 572q0 33 11 60t32 46.5t50 30.5t65 11q34 0 63.5 -10.5t51 -30t33.5 -46.5t12 -61q0 -33 -12 -60
t-33.5 -46.5t-51 -30.5t-63.5 -11q-36 0 -65 11t-50 30.5t-32 46.5t-11 60z" />
    <glyph glyph-name="ae" unicode="&#xe6;" horiz-adv-x="852" 
d="M748 270q0 31 -9 58.5t-27 47.5t-45.5 32t-65.5 12q-35 0 -62.5 -12t-46.5 -32.5t-29.5 -47.5t-10.5 -58h296zM275 216q-53 0 -84.5 -10t-48.5 -23.5t-22.5 -29t-5.5 -25.5q0 -21 9.5 -37.5t24.5 -27t33.5 -16t37.5 -5.5q46 0 79 14t54 37.5t30.5 55t9.5 67.5h-117z
M392 279q0 68 -33.5 104.5t-108.5 36.5q-80 0 -141 -52l-35 41q33 32 82 48.5t94 16.5q63 0 108.5 -20.5t71.5 -75.5q13 24 32 42t41.5 30t47 18t48.5 6q42 0 80 -12.5t66.5 -39.5t45.5 -69.5t17 -101.5v-35h-356q-2 -36 8 -67.5t30 -55t50.5 -37.5t71.5 -14q43 0 77 19.5
t56 54.5l47 -34q-39 -51 -82.5 -72.5t-107.5 -21.5q-61 0 -109 27t-73 87q-29 -62 -83 -88t-120 -26q-30 0 -59 7.5t-52 24t-37.5 42.5t-14.5 63q0 22 8.5 47.5t32.5 47t67.5 36t114.5 14.5h115v9z" />
    <glyph glyph-name="oslash" unicode="&#xf8;" horiz-adv-x="594" 
d="M180 83q22 -20 51.5 -30.5t65.5 -10.5q42 0 76 15t58 40.5t36.5 60t12.5 73.5q0 35 -9.5 65t-27.5 53zM413 380q-23 19 -52 29.5t-64 10.5q-42 0 -76 -15t-58 -40.5t-36.5 -60t-12.5 -73.5q0 -33 9 -63t27 -53zM109 73q-55 64 -55 158q0 53 18 97.5t50 77t77 50.5t98 18
q47 0 86.5 -14t70.5 -39l69 70l32 -29l-71 -71q27 -31 41.5 -71.5t14.5 -88.5q0 -53 -18 -97.5t-50.5 -77t-77 -50.5t-97.5 -18q-48 0 -88 14t-70 40l-68 -69l-32 29z" />
    <glyph glyph-name="oe" unicode="&#x153;" horiz-adv-x="907" 
d="M104 231q0 -37 12 -71t34.5 -60.5t54 -42t71.5 -15.5t71.5 15t53.5 40.5t34 60t12 73.5t-12 73.5t-34 60t-53.5 40.5t-71.5 15t-71.5 -15.5t-54 -42t-34.5 -60.5t-12 -71zM507 216q-2 -36 8 -67.5t30 -55t50.5 -37.5t71.5 -14q43 0 77 19.5t56 54.5l47 -34
q-39 -51 -82.5 -72.5t-107.5 -21.5q-61 0 -109 27t-73 87h-2q-29 -56 -81 -85t-118 -29q-50 0 -92 18t-72.5 50.5t-48 77t-17.5 97.5t17.5 97.5t48 77t72.5 50.5t92 18t85 -13.5t58 -32t36.5 -38t19.5 -31.5q9 20 24 40.5t37 37t52 27t68 10.5q42 0 80 -12.5t66.5 -39.5
t45.5 -69.5t17 -101.5v-35h-356zM803 270q0 31 -9 58.5t-27 47.5t-45.5 32t-65.5 12q-35 0 -62.5 -12t-46.5 -32.5t-29.5 -47.5t-10.5 -58h296z" />
    <glyph glyph-name="germandbls" unicode="&#xdf;" horiz-adv-x="593" 
d="M266 458h15q60 0 97.5 34.5t37.5 94.5q0 63 -36.5 95t-93.5 32q-41 0 -69 -15t-45 -41t-24.5 -60.5t-7.5 -72.5v-525h-60v534q0 51 13.5 94t40.5 74t66.5 48.5t90.5 17.5q39 0 73 -12t58.5 -34.5t39 -56t14.5 -76.5q0 -59 -27 -99.5t-72 -54.5v-2q28 -5 56 -17t51 -36
t37.5 -62.5t14.5 -96.5q0 -54 -18.5 -96.5t-51.5 -71.5t-78 -44t-99 -15q-12 0 -23.5 1t-23.5 4v58q13 -5 26 -7t27 -2q40 0 73.5 12t57.5 34.5t37 54.5t13 71q0 47 -15.5 82t-42 57.5t-60.5 33.5t-71 11h-21v54z" />
    <glyph glyph-name="divide" unicode="&#xf7;" horiz-adv-x="666" 
d="M282 149q0 22 15 36t36 15q21 0 36 -15t15 -36t-15 -36t-36 -15t-36 15t-15 36zM282 457q0 21 15 36t36 15t36 -15t15 -36t-15 -36t-36 -15t-36 15t-15 36zM78 327h510v-48h-510v48z" />
    <glyph glyph-name="threequarters" unicode="&#xbe;" horiz-adv-x="778" 
d="M638 352h-2l-134 -202h136v202zM640 102h-190v45l185 277h59v-274h64v-48h-64v-102h-54v102zM622 742l46 -28l-457 -748l-45 28zM121 536h23q15 1 32 5t31 12.5t23 22.5t9 35q0 26 -21 43.5t-56 17.5q-29 0 -51.5 -13.5t-36.5 -36.5l-39 25q20 32 52 52.5t75 20.5
q27 0 51 -7.5t42 -21.5t28 -34t10 -45q0 -35 -23.5 -61.5t-58.5 -37.5v-2q44 -6 69 -36t25 -71q0 -28 -11 -50.5t-30.5 -38t-46 -24t-57.5 -8.5q-49 0 -85 20.5t-55 68.5l48 18q11 -27 32 -43t60 -16q17 0 33.5 6t29 16.5t20.5 24.5t8 29q0 24 -9.5 39.5t-25 24.5t-36 13
t-42.5 4h-17v48z" />
    <glyph glyph-name="onequarter" unicode="&#xbc;" horiz-adv-x="778" 
d="M624 352h-2l-134 -202h136v202zM624 102h-190v45l185 277h59v-274h64v-48h-64v-102h-54v102zM571 742l46 -28l-457 -748l-45 28zM146 660l-85 -66l-25 34l110 86h54v-425h-54v371z" />
    <glyph glyph-name="onesuperior" unicode="&#xb9;" horiz-adv-x="338" 
d="M177 660l-85 -66l-25 34l110 86h54v-425h-54v371z" />
    <glyph glyph-name="multiply" unicode="&#xd7;" horiz-adv-x="666" 
d="M334 337l199 198l33 -34l-199 -198l198 -198l-34 -34l-197 199l-199 -199l-35 34l200 198l-198 198l34 34z" />
    <glyph glyph-name="registered" unicode="&#xae;" horiz-adv-x="800" 
d="M82 354q0 -66 25 -124t68 -101t101 -68t124 -25t124 25t101 68t68 101t25 124t-25 124t-68 101t-101 68t-124 25t-124 -25t-101 -68t-68 -101t-25 -124zM28 354q0 77 29.5 144.5t80 118t118 80t144.5 29.5t144.5 -29.5t118 -80t80 -118t29.5 -144.5t-29.5 -144.5
t-80 -118t-118 -80t-144.5 -29.5t-144.5 29.5t-118 80t-80 118t-29.5 144.5zM319 377h69q22 0 44 1.5t39.5 9t28.5 22t11 41.5q0 21 -8.5 34.5t-22 21.5t-31 11.5t-34.5 3.5h-96v-145zM319 141h-54v429h165q73 0 104 -30.5t31 -88.5q0 -30 -8.5 -51t-23.5 -35.5t-34.5 -23
t-41.5 -12.5l128 -188h-61l-128 188h-77v-188z" />
    <glyph glyph-name="Thorn" unicode="&#xde;" horiz-adv-x="574" 
d="M163 240h150q28 0 55 6.5t48 21t34 38.5t13 59q0 34 -13.5 58t-35 39.5t-49.5 22.5t-56 7h-146v-252zM97 708h65v-156h139q37 0 77.5 -8.5t74 -29.5t55 -57.5t21.5 -91.5q0 -48 -17.5 -83t-47 -57.5t-68 -33.5t-80.5 -11h-153v-180h-66v708z" />
    <glyph glyph-name="brokenbar" unicode="&#xa6;" horiz-adv-x="222" 
d="M135 175v-350h-48v350h48zM135 675v-350h-48v350h48z" />
    <glyph glyph-name="Eth" unicode="&#xd0;" horiz-adv-x="741" 
d="M88 342h-78v54h78v312h219q92 0 156 -22.5t106.5 -57.5t67 -77.5t36 -81.5t14.5 -70.5t3 -44.5t-3 -44.5t-14.5 -70.5t-36 -81.5t-67 -77.5t-106.5 -57.5t-156 -22.5h-219v342zM154 396h258v-54h-258v-282h136q70 0 131 17.5t106 53.5t71 91.5t26 131.5t-26 131.5
t-71 91.5t-106 53.5t-131 17.5h-136v-252z" />
    <glyph glyph-name="onehalf" unicode="&#xbd;" horiz-adv-x="778" 
d="M458 43l172 168q27 26 46 50t19 59q0 28 -22 45.5t-62 17.5q-38 0 -58 -18t-28 -41l-51 4q7 29 22.5 48.5t35 31.5t41 17.5t40.5 5.5q58 0 97 -28.5t39 -80.5q0 -24 -8 -45t-20.5 -39t-29 -35l-34.5 -34l-127 -121h220v-48h-292v43zM562 742l46 -28l-457 -748l-45 28z
M138 660l-85 -66l-25 34l110 86h54v-425h-54v371z" />
    <glyph glyph-name="ccedilla" unicode="&#xe7;" horiz-adv-x="481" 
d="M467 68q-34 -41 -77 -60.5t-93 -19.5q-9 0 -14 1l-38 -53l2 -2q13 7 31 7q32 0 57.5 -18t25.5 -54q0 -23 -10 -39t-26.5 -26t-36.5 -15t-39 -5q-50 0 -95 21l14 32q33 -17 76 -17q10 0 21 2.5t20.5 7.5t15.5 13t6 20q0 23 -18 32.5t-38 9.5q-23 0 -44 -8l-16 15l57 81
q-43 7 -79 27.5t-61.5 51.5t-39.5 71.5t-14 87.5q0 53 18 97.5t50 77t77 50.5t98 18q51 0 94.5 -21t77.5 -59l-48 -36q-26 29 -57 45.5t-67 16.5q-42 0 -76 -15t-58 -40.5t-36.5 -60t-12.5 -73.5t12.5 -73.5t36.5 -60t58 -40.5t76 -15q38 0 69.5 17.5t54.5 46.5z" />
    <glyph glyph-name="eth" unicode="&#xf0;" horiz-adv-x="594" 
d="M114 231q0 -39 12.5 -73.5t36.5 -60t58 -40.5t76 -15t76 15t58 40.5t36.5 60t12.5 73.5t-12.5 73.5t-36.5 60t-58 40.5t-76 15t-76 -15t-58 -40.5t-36.5 -60t-12.5 -73.5zM253 660q-23 21 -49 42.5t-45 35.5l52 30q23 -17 49 -38.5t46 -41.5l104 56l36 -30l-106 -57
q22 -20 56 -56t66 -86.5t55 -115.5t23 -143q0 -62 -18 -112t-50.5 -84.5t-77 -53t-97.5 -18.5t-98 18t-77 50.5t-50 77t-18 97.5t18 97.5t50 77t77 50.5t98 18q42 0 79.5 -13t69.5 -42l2 2q-38 67 -81 120.5t-80 86.5l-107 -57l-31 33z" />
    <glyph glyph-name="plusminus" unicode="&#xb1;" horiz-adv-x="666" 
d="M82 96h502v-48h-502v48zM78 375h228v183h48v-183h234v-48h-234v-183h-48v183h-228v48z" />
    <glyph glyph-name="Ccedilla" unicode="&#xc7;" horiz-adv-x="704" 
d="M680 111q-51 -69 -118 -99t-145 -30h-14q-6 0 -13 1l-34 -47l2 -2q13 7 31 7q32 0 57.5 -18t25.5 -54q0 -23 -10 -39t-26.5 -26t-36.5 -15t-39 -5q-50 0 -95 21l14 32q33 -17 76 -17q10 0 21 2.5t20.5 7.5t15.5 13t6 20q0 23 -18 32.5t-38 9.5q-23 0 -44 -8l-16 15l54 75
q-68 9 -124.5 40.5t-96.5 79.5t-62 111t-22 136q0 81 27 149t75 117.5t115.5 77.5t148.5 28q72 0 134.5 -25.5t109.5 -85.5l-54 -45q-33 50 -84.5 73t-105.5 23q-69 0 -124.5 -24t-94.5 -66t-60 -99t-21 -123t21 -123t60 -99t94.5 -66t124.5 -24q27 0 56 6.5t56.5 20
t52.5 34t44 49.5z" />
    <glyph glyph-name="thorn" unicode="&#xfe;" horiz-adv-x="611" 
d="M121 231q0 -39 15 -73.5t41 -60t61 -40.5t76 -15q42 0 76 15t58 40.5t36.5 60t12.5 73.5t-12.5 73.5t-36.5 60t-58 40.5t-76 15q-41 0 -76 -15t-61 -40.5t-41 -60t-15 -73.5zM67 756h60v-375h2q14 24 35 41.5t45.5 29t51.5 17t53 5.5q53 0 97.5 -18t77 -50.5t50.5 -77
t18 -97.5t-18 -97.5t-50.5 -77t-77 -50.5t-97.5 -18q-26 0 -53 5.5t-51.5 17t-45.5 29t-35 41.5h-2v-309h-60v984z" />
    <glyph glyph-name="copyright" unicode="&#xa9;" horiz-adv-x="800" 
d="M82 354q0 -66 25 -124t68 -101t101 -68t124 -25t124 25t101 68t68 101t25 124t-25 124t-68 101t-101 68t-124 25t-124 -25t-101 -68t-68 -101t-25 -124zM28 354q0 77 29.5 144.5t80 118t118 80t144.5 29.5t144.5 -29.5t118 -80t80 -118t29.5 -144.5t-29.5 -144.5
t-80 -118t-118 -80t-144.5 -29.5t-144.5 29.5t-118 80t-80 118t-29.5 144.5zM540 431q-9 41 -42 72t-88 32q-38 0 -68 -14.5t-50.5 -39.5t-31.5 -57.5t-11 -69.5t11 -70t31.5 -57.5t50.5 -39t68 -14.5q27 0 49.5 8.5t39 23t27 33t14.5 39.5h54q-5 -37 -21 -65t-41 -47.5
t-56.5 -29.5t-66.5 -10q-51 0 -91 17t-67 48t-41.5 72.5t-14.5 91.5q0 49 14.5 91t41.5 73t67 48t91 17q35 0 66.5 -10t56.5 -29.5t41 -47.5t21 -65h-54z" />
    <glyph glyph-name="logicalnot" unicode="&#xac;" horiz-adv-x="666" 
d="M540 351h-462v48h510v-265h-48v217z" />
    <glyph glyph-name="twosuperior" unicode="&#xb2;" horiz-adv-x="338" 
d="M23 332l172 168q27 26 46 50t19 59q0 28 -22 45.5t-62 17.5q-38 0 -58 -18t-28 -41l-51 4q7 29 22.5 48.5t35 31.5t41 17.5t40.5 5.5q58 0 97 -28.5t39 -80.5q0 -24 -8 -45t-20.5 -39t-29 -35l-34.5 -34l-127 -121h220v-48h-292v43z" />
    <glyph glyph-name="threesuperior" unicode="&#xb3;" horiz-adv-x="338" 
d="M127 536h23q15 0 32 4t31 12.5t23 23t9 35.5q0 26 -21 43.5t-56 17.5q-29 0 -51.5 -13.5t-36.5 -36.5l-39 25q20 32 52 52.5t75 20.5q27 0 51 -7.5t42 -21.5t28 -34t10 -45q0 -35 -23.5 -61.5t-58.5 -37.5v-2q44 -6 69 -36t25 -71q0 -28 -11 -50.5t-30.5 -38t-46 -24
t-57.5 -8.5q-49 0 -85 20.5t-54 68.5l47 18q11 -27 32 -43t60 -16q17 0 33.5 6t29 16.5t20.5 24.5t8 29q0 24 -9.5 39.5t-25 24.5t-36 13t-42.5 4h-17v48z" />
    <glyph glyph-name="trademark" unicode="&#x2122;" horiz-adv-x="990" 
d="M478 708h86l130 -328l129 328h83v-412h-54v361h-2l-142 -361h-32l-142 361h-2v-361h-54v412zM217 660h-133v48h320v-48h-133v-364h-54v364z" />
    <glyph glyph-name="degree" unicode="&#xb0;" horiz-adv-x="400" 
d="M200 480q40 0 68 28t28 68t-28 68t-68 28t-68 -28t-28 -68t28 -68t68 -28zM200 432q-30 0 -56.5 11.5t-46 31t-30.5 46t-11 56.5t11 56t30.5 45.5t46 30.5t56.5 11t56 -11t45.5 -30.5t31 -45.5t11.5 -56t-11.5 -56.5t-31 -46t-45.5 -31t-56 -11.5z" />
    <glyph glyph-name="mu" unicode="&#xb5;" horiz-adv-x="556" 
d="M471 130q0 -13 1 -31.5t1.5 -37.5t1.5 -35.5t1 -25.5h-60q-1 26 -1.5 50t-2.5 31h-3q-18 -38 -60 -65.5t-98 -27.5q-41 0 -69 10t-48 28v-254h-59v690h60v-272q0 -28 5 -54.5t17.5 -47.5t35 -33.5t58.5 -12.5q33 0 62.5 11.5t51 35t34 59t12.5 83.5v231h60v-332z" />
    <glyph glyph-name="mu" unicode="&#x3bc;" horiz-adv-x="556" 
d="M471 130q0 -13 1 -31.5t1.5 -37.5t1.5 -35.5t1 -25.5h-60q-1 26 -1.5 50t-2.5 31h-3q-18 -38 -60 -65.5t-98 -27.5q-41 0 -69 10t-48 28v-254h-59v690h60v-272q0 -28 5 -54.5t17.5 -47.5t35 -33.5t58.5 -12.5q33 0 62.5 11.5t51 35t34 59t12.5 83.5v231h60v-332z" />
    <glyph glyph-name="space" unicode=" " horiz-adv-x="260" 
 />
    <glyph glyph-name="space" unicode="&#xa0;" horiz-adv-x="260" 
 />
    <glyph glyph-name="Aacute" unicode="&#xc1;" horiz-adv-x="685" 
d="M345 636l-165 -388h325zM314 708h68l298 -708h-74l-77 188h-375l-80 -188h-69zM389 896h80l-134 -144h-50z" />
    <glyph glyph-name="Acircumflex" unicode="&#xc2;" horiz-adv-x="685" 
d="M345 636l-165 -388h325zM314 708h68l298 -708h-74l-77 188h-375l-80 -188h-69zM308 896h70l108 -144h-65l-81 108l-81 -108h-59z" />
    <glyph glyph-name="Adieresis" unicode="&#xc4;" horiz-adv-x="685" 
d="M345 636l-165 -388h325zM314 708h68l298 -708h-74l-77 188h-375l-80 -188h-69zM390 840q0 20 14 34t34 14t34 -14t14 -34t-14 -34t-34 -14t-34 14t-14 34zM200 840q0 20 14 34t34 14t34 -14t14 -34t-14 -34t-34 -14t-34 14t-14 34z" />
    <glyph glyph-name="Agrave" unicode="&#xc0;" horiz-adv-x="685" 
d="M345 636l-165 -388h325zM314 708h68l298 -708h-74l-77 188h-375l-80 -188h-69zM401 752h-50l-134 144h80z" />
    <glyph glyph-name="Aring" unicode="&#xc5;" horiz-adv-x="685" 
d="M345 636l-165 -388h325zM314 708h68l298 -708h-74l-77 188h-375l-80 -188h-69zM400 837q0 25 -16 42t-41 17t-41 -17.5t-16 -42.5t16.5 -41.5t40.5 -16.5q25 0 41 17t16 42zM250 837q0 19 7.5 36.5t20 30.5t29.5 20.5t37 7.5q19 0 36 -8t29.5 -21.5t19.5 -30.5t7 -36
q0 -18 -7 -35t-19.5 -30t-29.5 -21t-36 -8q-20 0 -37 7.5t-29.5 20.5t-20 30.5t-7.5 36.5z" />
    <glyph glyph-name="Atilde" unicode="&#xc3;" horiz-adv-x="685" 
d="M345 636l-165 -388h325zM314 708h68l298 -708h-74l-77 188h-375l-80 -188h-69zM187 769q2 17 9 35.5t18 32.5q11 15 27 24.5t36 9.5t39 -8t36 -17l33 -15.5t30 -7.5q22 0 33 15t15 33h36q-2 -18 -8 -36.5t-16.5 -33t-25 -23.5t-34.5 -9t-38.5 8l-36.5 16l-34.5 16
t-31.5 8q-23 0 -34.5 -15t-16.5 -33h-36z" />
    <glyph glyph-name="Eacute" unicode="&#xc9;" horiz-adv-x="593" 
d="M97 708h433v-60h-367v-252h344v-60h-344v-276h383v-60h-449v708zM343 896h80l-134 -144h-50z" />
    <glyph glyph-name="Ecircumflex" unicode="&#xca;" horiz-adv-x="593" 
d="M97 708h433v-60h-367v-252h344v-60h-344v-276h383v-60h-449v708zM262 896h70l108 -144h-65l-81 108l-81 -108h-59z" />
    <glyph glyph-name="Edieresis" unicode="&#xcb;" horiz-adv-x="593" 
d="M97 708h433v-60h-367v-252h344v-60h-344v-276h383v-60h-449v708zM344 840q0 20 14 34t34 14t34 -14t14 -34t-14 -34t-34 -14t-34 14t-14 34zM154 840q0 20 14 34t34 14t34 -14t14 -34t-14 -34t-34 -14t-34 14t-14 34z" />
    <glyph glyph-name="Egrave" unicode="&#xc8;" horiz-adv-x="593" 
d="M97 708h433v-60h-367v-252h344v-60h-344v-276h383v-60h-449v708zM355 752h-50l-134 144h80z" />
    <glyph glyph-name="Iacute" unicode="&#xcd;" horiz-adv-x="260" 
d="M97 708h66v-708h-66v708zM176 896h80l-134 -144h-50z" />
    <glyph glyph-name="Icircumflex" unicode="&#xce;" horiz-adv-x="260" 
d="M97 708h66v-708h-66v708zM95 896h70l108 -144h-65l-81 108l-81 -108h-59z" />
    <glyph glyph-name="Idieresis" unicode="&#xcf;" horiz-adv-x="260" 
d="M97 708h66v-708h-66v708zM177 840q0 20 14 34t34 14t34 -14t14 -34t-14 -34t-34 -14t-34 14t-14 34zM-13 840q0 20 14 34t34 14t34 -14t14 -34t-14 -34t-34 -14t-34 14t-14 34z" />
    <glyph glyph-name="Igrave" unicode="&#xcc;" horiz-adv-x="260" 
d="M97 708h66v-708h-66v708zM188 752h-50l-134 144h80z" />
    <glyph glyph-name="Ntilde" unicode="&#xd1;" horiz-adv-x="778" 
d="M97 708h85l431 -620h2v620h66v-708h-85l-431 620h-2v-620h-66v708zM233 769q2 17 9 35.5t18 32.5q11 15 27 24.5t36 9.5t39 -8t36 -17l33 -15.5t30 -7.5q22 0 33 15t15 33h36q-2 -18 -8 -36.5t-16.5 -33t-25 -23.5t-34.5 -9t-38.5 8l-36.5 16l-34.5 16t-31.5 8
q-23 0 -34.5 -15t-16.5 -33h-36z" />
    <glyph glyph-name="Oacute" unicode="&#xd3;" horiz-adv-x="834" 
d="M117 354q0 -66 21 -123t60 -99t94.5 -66t124.5 -24t124.5 24t94.5 66t60 99t21 123t-21 123t-60 99t-94.5 66t-124.5 24t-124.5 -24t-94.5 -66t-60 -99t-21 -123zM51 354q0 81 27 149t75 117.5t115.5 77.5t148.5 28t148.5 -28t115.5 -77.5t75 -117.5t27 -149t-27 -149.5
t-75 -118t-115.5 -77t-148.5 -27.5t-148.5 27.5t-115.5 77t-75 118t-27 149.5zM463 896h80l-134 -144h-50z" />
    <glyph glyph-name="Ocircumflex" unicode="&#xd4;" horiz-adv-x="834" 
d="M117 354q0 -66 21 -123t60 -99t94.5 -66t124.5 -24t124.5 24t94.5 66t60 99t21 123t-21 123t-60 99t-94.5 66t-124.5 24t-124.5 -24t-94.5 -66t-60 -99t-21 -123zM51 354q0 81 27 149t75 117.5t115.5 77.5t148.5 28t148.5 -28t115.5 -77.5t75 -117.5t27 -149t-27 -149.5
t-75 -118t-115.5 -77t-148.5 -27.5t-148.5 27.5t-115.5 77t-75 118t-27 149.5zM382 896h70l108 -144h-65l-81 108l-81 -108h-59z" />
    <glyph glyph-name="Odieresis" unicode="&#xd6;" horiz-adv-x="834" 
d="M117 354q0 -66 21 -123t60 -99t94.5 -66t124.5 -24t124.5 24t94.5 66t60 99t21 123t-21 123t-60 99t-94.5 66t-124.5 24t-124.5 -24t-94.5 -66t-60 -99t-21 -123zM51 354q0 81 27 149t75 117.5t115.5 77.5t148.5 28t148.5 -28t115.5 -77.5t75 -117.5t27 -149t-27 -149.5
t-75 -118t-115.5 -77t-148.5 -27.5t-148.5 27.5t-115.5 77t-75 118t-27 149.5zM464 840q0 20 14 34t34 14t34 -14t14 -34t-14 -34t-34 -14t-34 14t-14 34zM274 840q0 20 14 34t34 14t34 -14t14 -34t-14 -34t-34 -14t-34 14t-14 34z" />
    <glyph glyph-name="Ograve" unicode="&#xd2;" horiz-adv-x="834" 
d="M117 354q0 -66 21 -123t60 -99t94.5 -66t124.5 -24t124.5 24t94.5 66t60 99t21 123t-21 123t-60 99t-94.5 66t-124.5 24t-124.5 -24t-94.5 -66t-60 -99t-21 -123zM51 354q0 81 27 149t75 117.5t115.5 77.5t148.5 28t148.5 -28t115.5 -77.5t75 -117.5t27 -149t-27 -149.5
t-75 -118t-115.5 -77t-148.5 -27.5t-148.5 27.5t-115.5 77t-75 118t-27 149.5zM475 752h-50l-134 144h80z" />
    <glyph glyph-name="Otilde" unicode="&#xd5;" horiz-adv-x="834" 
d="M117 354q0 -66 21 -123t60 -99t94.5 -66t124.5 -24t124.5 24t94.5 66t60 99t21 123t-21 123t-60 99t-94.5 66t-124.5 24t-124.5 -24t-94.5 -66t-60 -99t-21 -123zM51 354q0 81 27 149t75 117.5t115.5 77.5t148.5 28t148.5 -28t115.5 -77.5t75 -117.5t27 -149t-27 -149.5
t-75 -118t-115.5 -77t-148.5 -27.5t-148.5 27.5t-115.5 77t-75 118t-27 149.5zM261 769q2 17 9 35.5t18 32.5q11 15 27 24.5t36 9.5t39 -8t36 -17l33 -15.5t30 -7.5q22 0 33 15t15 33h36q-2 -18 -8 -36.5t-16.5 -33t-25 -23.5t-34.5 -9t-38.5 8l-36.5 16l-34.5 16t-31.5 8
q-23 0 -34.5 -15t-16.5 -33h-36z" />
    <glyph glyph-name="Scaron" unicode="&#x160;" horiz-adv-x="556" 
d="M116 131q26 -45 67.5 -67t94.5 -22q33 0 62 10t50.5 28t34 43.5t12.5 57.5q0 37 -15.5 61t-41.5 39.5t-58.5 26.5l-67 22t-67 25t-58.5 36.5t-41.5 56.5t-15.5 84q0 47 18.5 83.5t50 61t72.5 37t86 12.5q58 0 107.5 -20.5t85.5 -68.5l-57 -41q-25 35 -58.5 52.5
t-79.5 17.5q-32 0 -61 -8.5t-50.5 -25t-34.5 -41.5t-13 -59q0 -53 27 -81.5t67.5 -45t88 -29t88 -33.5t67.5 -58.5t27 -103.5q0 -48 -18 -85t-48.5 -62.5t-70.5 -38.5t-83 -13q-70 0 -129 24.5t-101 82.5zM311 752h-70l-109 144h62l83 -114l86 114h54z" />
    <glyph glyph-name="Uacute" unicode="&#xda;" horiz-adv-x="684" 
d="M600 271q0 -57 -13 -109t-43.5 -92t-80 -64t-121.5 -24t-121.5 24t-80 64t-43.5 92t-13 109v437h66v-420q0 -38 7 -81t27.5 -80t58 -61t99.5 -24t99.5 24t58 61t27.5 80t7 81v420h66v-437zM388 896h80l-134 -144h-50z" />
    <glyph glyph-name="Ucircumflex" unicode="&#xdb;" horiz-adv-x="684" 
d="M600 271q0 -57 -13 -109t-43.5 -92t-80 -64t-121.5 -24t-121.5 24t-80 64t-43.5 92t-13 109v437h66v-420q0 -38 7 -81t27.5 -80t58 -61t99.5 -24t99.5 24t58 61t27.5 80t7 81v420h66v-437zM307 896h70l108 -144h-65l-81 108l-81 -108h-59z" />
    <glyph glyph-name="Udieresis" unicode="&#xdc;" horiz-adv-x="684" 
d="M600 271q0 -57 -13 -109t-43.5 -92t-80 -64t-121.5 -24t-121.5 24t-80 64t-43.5 92t-13 109v437h66v-420q0 -38 7 -81t27.5 -80t58 -61t99.5 -24t99.5 24t58 61t27.5 80t7 81v420h66v-437zM389 840q0 20 14 34t34 14t34 -14t14 -34t-14 -34t-34 -14t-34 14t-14 34z
M199 840q0 20 14 34t34 14t34 -14t14 -34t-14 -34t-34 -14t-34 14t-14 34z" />
    <glyph glyph-name="Ugrave" unicode="&#xd9;" horiz-adv-x="684" 
d="M600 271q0 -57 -13 -109t-43.5 -92t-80 -64t-121.5 -24t-121.5 24t-80 64t-43.5 92t-13 109v437h66v-420q0 -38 7 -81t27.5 -80t58 -61t99.5 -24t99.5 24t58 61t27.5 80t7 81v420h66v-437zM400 752h-50l-134 144h80z" />
    <glyph glyph-name="Yacute" unicode="&#xdd;" horiz-adv-x="574" 
d="M254 305l-260 403h79l214 -336l219 336h74l-260 -403v-305h-66v305zM333 896h80l-134 -144h-50z" />
    <glyph glyph-name="Ydieresis" unicode="&#x178;" horiz-adv-x="574" 
d="M254 305l-260 403h79l214 -336l219 336h74l-260 -403v-305h-66v305zM334 840q0 20 14 34t34 14t34 -14t14 -34t-14 -34t-34 -14t-34 14t-14 34zM144 840q0 20 14 34t34 14t34 -14t14 -34t-14 -34t-34 -14t-34 14t-14 34z" />
    <glyph glyph-name="Zcaron" horiz-adv-x="556" 
d="M23 52l414 596h-408v60h493v-54l-417 -594h428v-60h-510v52zM311 752h-70l-109 144h62l83 -114l86 114h54z" />
    <glyph glyph-name="Zcaron" unicode="&#x17d;" horiz-adv-x="556" 
d="M23 52l414 596h-408v60h493v-54l-417 -594h428v-60h-510v52zM311 752h-70l-109 144h62l83 -114l86 114h54z" />
    <glyph glyph-name="aacute" unicode="&#xe1;" horiz-adv-x="519" 
d="M319 232q-38 0 -73.5 -5t-64 -17t-45.5 -32t-17 -50q0 -21 9.5 -37.5t24.5 -27t33.5 -16t37.5 -5.5q48 0 79 14t49.5 36.5t25.5 51t7 57.5v31h-66zM439 194q0 -34 0.5 -61t1.5 -50t2.5 -43t4.5 -40h-56q-6 34 -6 75h-2q-26 -45 -64.5 -66t-97.5 -21q-30 0 -59 7.5t-52 24
t-37.5 42.5t-14.5 63q0 53 27 84t66.5 46.5t84 20t78.5 4.5h70v28q0 60 -37 86t-93 26q-80 0 -141 -52l-35 41q33 32 82 48.5t94 16.5q84 0 134 -39.5t50 -127.5v-113zM306 708h80l-134 -144h-50z" />
    <glyph glyph-name="acircumflex" unicode="&#xe2;" horiz-adv-x="519" 
d="M319 232q-38 0 -73.5 -5t-64 -17t-45.5 -32t-17 -50q0 -21 9.5 -37.5t24.5 -27t33.5 -16t37.5 -5.5q48 0 79 14t49.5 36.5t25.5 51t7 57.5v31h-66zM439 194q0 -34 0.5 -61t1.5 -50t2.5 -43t4.5 -40h-56q-6 34 -6 75h-2q-26 -45 -64.5 -66t-97.5 -21q-30 0 -59 7.5t-52 24
t-37.5 42.5t-14.5 63q0 53 27 84t66.5 46.5t84 20t78.5 4.5h70v28q0 60 -37 86t-93 26q-80 0 -141 -52l-35 41q33 32 82 48.5t94 16.5q84 0 134 -39.5t50 -127.5v-113zM225 708h70l108 -144h-65l-81 108l-81 -108h-59z" />
    <glyph glyph-name="adieresis" unicode="&#xe4;" horiz-adv-x="519" 
d="M319 232q-38 0 -73.5 -5t-64 -17t-45.5 -32t-17 -50q0 -21 9.5 -37.5t24.5 -27t33.5 -16t37.5 -5.5q48 0 79 14t49.5 36.5t25.5 51t7 57.5v31h-66zM439 194q0 -34 0.5 -61t1.5 -50t2.5 -43t4.5 -40h-56q-6 34 -6 75h-2q-26 -45 -64.5 -66t-97.5 -21q-30 0 -59 7.5t-52 24
t-37.5 42.5t-14.5 63q0 53 27 84t66.5 46.5t84 20t78.5 4.5h70v28q0 60 -37 86t-93 26q-80 0 -141 -52l-35 41q33 32 82 48.5t94 16.5q84 0 134 -39.5t50 -127.5v-113zM307 652q0 20 14 34t34 14t34 -14t14 -34t-14 -34t-34 -14t-34 14t-14 34zM117 652q0 20 14 34t34 14
t34 -14t14 -34t-14 -34t-34 -14t-34 14t-14 34z" />
    <glyph glyph-name="agrave" unicode="&#xe0;" horiz-adv-x="519" 
d="M319 232q-38 0 -73.5 -5t-64 -17t-45.5 -32t-17 -50q0 -21 9.5 -37.5t24.5 -27t33.5 -16t37.5 -5.5q48 0 79 14t49.5 36.5t25.5 51t7 57.5v31h-66zM439 194q0 -34 0.5 -61t1.5 -50t2.5 -43t4.5 -40h-56q-6 34 -6 75h-2q-26 -45 -64.5 -66t-97.5 -21q-30 0 -59 7.5t-52 24
t-37.5 42.5t-14.5 63q0 53 27 84t66.5 46.5t84 20t78.5 4.5h70v28q0 60 -37 86t-93 26q-80 0 -141 -52l-35 41q33 32 82 48.5t94 16.5q84 0 134 -39.5t50 -127.5v-113zM318 564h-50l-134 144h80z" />
    <glyph glyph-name="aring" unicode="&#xe5;" horiz-adv-x="519" 
d="M319 232q-38 0 -73.5 -5t-64 -17t-45.5 -32t-17 -50q0 -21 9.5 -37.5t24.5 -27t33.5 -16t37.5 -5.5q48 0 79 14t49.5 36.5t25.5 51t7 57.5v31h-66zM439 194q0 -34 0.5 -61t1.5 -50t2.5 -43t4.5 -40h-56q-6 34 -6 75h-2q-26 -45 -64.5 -66t-97.5 -21q-30 0 -59 7.5t-52 24
t-37.5 42.5t-14.5 63q0 53 27 84t66.5 46.5t84 20t78.5 4.5h70v28q0 60 -37 86t-93 26q-80 0 -141 -52l-35 41q33 32 82 48.5t94 16.5q84 0 134 -39.5t50 -127.5v-113zM317 649q0 25 -16 42t-41 17t-41 -17.5t-16 -42.5t16.5 -41.5t40.5 -16.5q25 0 41 17t16 42zM167 649
q0 19 7.5 36.5t20 30.5t29.5 20.5t37 7.5q19 0 36 -8t29.5 -21.5t19.5 -30.5t7 -36q0 -18 -7 -35t-19.5 -30t-29.5 -21t-36 -8q-20 0 -37 7.5t-29.5 20.5t-20 30.5t-7.5 36.5z" />
    <glyph glyph-name="atilde" unicode="&#xe3;" horiz-adv-x="519" 
d="M319 232q-38 0 -73.5 -5t-64 -17t-45.5 -32t-17 -50q0 -21 9.5 -37.5t24.5 -27t33.5 -16t37.5 -5.5q48 0 79 14t49.5 36.5t25.5 51t7 57.5v31h-66zM439 194q0 -34 0.5 -61t1.5 -50t2.5 -43t4.5 -40h-56q-6 34 -6 75h-2q-26 -45 -64.5 -66t-97.5 -21q-30 0 -59 7.5t-52 24
t-37.5 42.5t-14.5 63q0 53 27 84t66.5 46.5t84 20t78.5 4.5h70v28q0 60 -37 86t-93 26q-80 0 -141 -52l-35 41q33 32 82 48.5t94 16.5q84 0 134 -39.5t50 -127.5v-113zM104 581q2 17 9 35.5t18 32.5q11 15 27 24.5t36 9.5t39 -8t36 -17l33 -15.5t30 -7.5q22 0 33 15t15 33
h36q-2 -18 -8 -36.5t-16.5 -33t-25 -23.5t-34.5 -9t-38.5 8l-36.5 16l-34.5 16t-31.5 8q-23 0 -34.5 -15t-16.5 -33h-36z" />
    <glyph glyph-name="eacute" unicode="&#xe9;" horiz-adv-x="556" 
d="M442 270q0 31 -12.5 58t-34 47.5t-51 32.5t-62.5 12q-49 0 -81.5 -20t-51.5 -46t-27 -50.5t-8 -33.5h328zM488 87q-35 -53 -86.5 -76t-113.5 -23q-53 0 -96 18t-74 50.5t-47.5 77t-16.5 98.5q0 52 17 96t48 76.5t73 51t93 18.5q53 0 93.5 -18.5t68 -49t41.5 -69.5t14 -79
v-42h-388q0 -19 7.5 -48.5t27.5 -57.5t53.5 -48t86.5 -20q46 0 89 22t66 60zM324 708h80l-134 -144h-50z" />
    <glyph glyph-name="ecircumflex" unicode="&#xea;" horiz-adv-x="556" 
d="M442 270q0 31 -12.5 58t-34 47.5t-51 32.5t-62.5 12q-49 0 -81.5 -20t-51.5 -46t-27 -50.5t-8 -33.5h328zM488 87q-35 -53 -86.5 -76t-113.5 -23q-53 0 -96 18t-74 50.5t-47.5 77t-16.5 98.5q0 52 17 96t48 76.5t73 51t93 18.5q53 0 93.5 -18.5t68 -49t41.5 -69.5t14 -79
v-42h-388q0 -19 7.5 -48.5t27.5 -57.5t53.5 -48t86.5 -20q46 0 89 22t66 60zM243 708h70l108 -144h-65l-81 108l-81 -108h-59z" />
    <glyph glyph-name="edieresis" unicode="&#xeb;" horiz-adv-x="556" 
d="M442 270q0 31 -12.5 58t-34 47.5t-51 32.5t-62.5 12q-49 0 -81.5 -20t-51.5 -46t-27 -50.5t-8 -33.5h328zM488 87q-35 -53 -86.5 -76t-113.5 -23q-53 0 -96 18t-74 50.5t-47.5 77t-16.5 98.5q0 52 17 96t48 76.5t73 51t93 18.5q53 0 93.5 -18.5t68 -49t41.5 -69.5t14 -79
v-42h-388q0 -19 7.5 -48.5t27.5 -57.5t53.5 -48t86.5 -20q46 0 89 22t66 60zM325 652q0 20 14 34t34 14t34 -14t14 -34t-14 -34t-34 -14t-34 14t-14 34zM135 652q0 20 14 34t34 14t34 -14t14 -34t-14 -34t-34 -14t-34 14t-14 34z" />
    <glyph glyph-name="egrave" unicode="&#xe8;" horiz-adv-x="556" 
d="M442 270q0 31 -12.5 58t-34 47.5t-51 32.5t-62.5 12q-49 0 -81.5 -20t-51.5 -46t-27 -50.5t-8 -33.5h328zM488 87q-35 -53 -86.5 -76t-113.5 -23q-53 0 -96 18t-74 50.5t-47.5 77t-16.5 98.5q0 52 17 96t48 76.5t73 51t93 18.5q53 0 93.5 -18.5t68 -49t41.5 -69.5t14 -79
v-42h-388q0 -19 7.5 -48.5t27.5 -57.5t53.5 -48t86.5 -20q46 0 89 22t66 60zM336 564h-50l-134 144h80z" />
    <glyph glyph-name="iacute" unicode="&#xed;" horiz-adv-x="240" 
d="M90 462h60v-462h-60v462zM166 708h80l-134 -144h-50z" />
    <glyph glyph-name="icircumflex" unicode="&#xee;" horiz-adv-x="240" 
d="M90 462h60v-462h-60v462zM85 708h70l108 -144h-65l-81 108l-81 -108h-59z" />
    <glyph glyph-name="idieresis" unicode="&#xef;" horiz-adv-x="240" 
d="M90 462h60v-462h-60v462zM167 652q0 20 14 34t34 14t34 -14t14 -34t-14 -34t-34 -14t-34 14t-14 34zM-23 652q0 20 14 34t34 14t34 -14t14 -34t-14 -34t-34 -14t-34 14t-14 34z" />
    <glyph glyph-name="igrave" unicode="&#xec;" horiz-adv-x="240" 
d="M90 462h60v-462h-60v462zM178 564h-50l-134 144h80z" />
    <glyph glyph-name="ntilde" unicode="&#xf1;" horiz-adv-x="556" 
d="M80 332q0 13 -1 31.5t-1.5 37.5t-1.5 35.5t-1 25.5h60q1 -26 1.5 -50t2.5 -31h3q18 38 60 65.5t98 27.5q54 0 88 -17t53.5 -44.5t27 -63.5t7.5 -74v-275h-60v272q0 28 -5 54.5t-17.5 47.5t-35 33.5t-58.5 12.5q-33 0 -62.5 -11.5t-51 -35t-34 -59t-12.5 -83.5v-231h-60
v332zM122 581q2 17 9 35.5t18 32.5q11 15 27 24.5t36 9.5t39 -8t36 -17l33 -15.5t30 -7.5q22 0 33 15t15 33h36q-2 -18 -8 -36.5t-16.5 -33t-25 -23.5t-34.5 -9t-38.5 8l-36.5 16l-34.5 16t-31.5 8q-23 0 -34.5 -15t-16.5 -33h-36z" />
    <glyph glyph-name="oacute" unicode="&#xf3;" horiz-adv-x="594" 
d="M114 231q0 -39 12.5 -73.5t36.5 -60t58 -40.5t76 -15t76 15t58 40.5t36.5 60t12.5 73.5t-12.5 73.5t-36.5 60t-58 40.5t-76 15t-76 -15t-58 -40.5t-36.5 -60t-12.5 -73.5zM54 231q0 53 18 97.5t50 77t77 50.5t98 18t97.5 -18t77 -50.5t50.5 -77t18 -97.5t-18 -97.5
t-50.5 -77t-77 -50.5t-97.5 -18t-98 18t-77 50.5t-50 77t-18 97.5zM343 708h80l-134 -144h-50z" />
    <glyph glyph-name="ocircumflex" unicode="&#xf4;" horiz-adv-x="594" 
d="M114 231q0 -39 12.5 -73.5t36.5 -60t58 -40.5t76 -15t76 15t58 40.5t36.5 60t12.5 73.5t-12.5 73.5t-36.5 60t-58 40.5t-76 15t-76 -15t-58 -40.5t-36.5 -60t-12.5 -73.5zM54 231q0 53 18 97.5t50 77t77 50.5t98 18t97.5 -18t77 -50.5t50.5 -77t18 -97.5t-18 -97.5
t-50.5 -77t-77 -50.5t-97.5 -18t-98 18t-77 50.5t-50 77t-18 97.5zM262 708h70l108 -144h-65l-81 108l-81 -108h-59z" />
    <glyph glyph-name="odieresis" unicode="&#xf6;" horiz-adv-x="594" 
d="M114 231q0 -39 12.5 -73.5t36.5 -60t58 -40.5t76 -15t76 15t58 40.5t36.5 60t12.5 73.5t-12.5 73.5t-36.5 60t-58 40.5t-76 15t-76 -15t-58 -40.5t-36.5 -60t-12.5 -73.5zM54 231q0 53 18 97.5t50 77t77 50.5t98 18t97.5 -18t77 -50.5t50.5 -77t18 -97.5t-18 -97.5
t-50.5 -77t-77 -50.5t-97.5 -18t-98 18t-77 50.5t-50 77t-18 97.5zM344 652q0 20 14 34t34 14t34 -14t14 -34t-14 -34t-34 -14t-34 14t-14 34zM154 652q0 20 14 34t34 14t34 -14t14 -34t-14 -34t-34 -14t-34 14t-14 34z" />
    <glyph glyph-name="ograve" unicode="&#xf2;" horiz-adv-x="594" 
d="M114 231q0 -39 12.5 -73.5t36.5 -60t58 -40.5t76 -15t76 15t58 40.5t36.5 60t12.5 73.5t-12.5 73.5t-36.5 60t-58 40.5t-76 15t-76 -15t-58 -40.5t-36.5 -60t-12.5 -73.5zM54 231q0 53 18 97.5t50 77t77 50.5t98 18t97.5 -18t77 -50.5t50.5 -77t18 -97.5t-18 -97.5
t-50.5 -77t-77 -50.5t-97.5 -18t-98 18t-77 50.5t-50 77t-18 97.5zM355 564h-50l-134 144h80z" />
    <glyph glyph-name="otilde" unicode="&#xf5;" horiz-adv-x="594" 
d="M114 231q0 -39 12.5 -73.5t36.5 -60t58 -40.5t76 -15t76 15t58 40.5t36.5 60t12.5 73.5t-12.5 73.5t-36.5 60t-58 40.5t-76 15t-76 -15t-58 -40.5t-36.5 -60t-12.5 -73.5zM54 231q0 53 18 97.5t50 77t77 50.5t98 18t97.5 -18t77 -50.5t50.5 -77t18 -97.5t-18 -97.5
t-50.5 -77t-77 -50.5t-97.5 -18t-98 18t-77 50.5t-50 77t-18 97.5zM141 581q2 17 9 35.5t18 32.5q11 15 27 24.5t36 9.5t39 -8t36 -17l33 -15.5t30 -7.5q22 0 33 15t15 33h36q-2 -18 -8 -36.5t-16.5 -33t-25 -23.5t-34.5 -9t-38.5 8l-36.5 16l-34.5 16t-31.5 8
q-23 0 -34.5 -15t-16.5 -33h-36z" />
    <glyph glyph-name="scaron" unicode="&#x161;" horiz-adv-x="426" 
d="M81 118q19 -37 56 -56.5t78 -19.5q19 0 38 6t34 17t24.5 26.5t9.5 35.5q0 32 -20.5 48t-50.5 25t-66 15.5t-66 20t-50.5 37.5t-20.5 68q0 34 14 59t36.5 41.5t50.5 24.5t57 8q57 0 98.5 -21t64.5 -66l-54 -32q-17 32 -42.5 48.5t-66.5 16.5q-16 0 -33.5 -5t-31.5 -14
t-23.5 -23t-9.5 -32q0 -31 20.5 -46t50.5 -23.5t66 -14.5t66 -19.5t50.5 -39t20.5 -72.5q0 -36 -13.5 -62.5t-37 -44.5t-53.5 -27t-63 -9q-60 0 -109.5 23t-76.5 71zM246 564h-70l-109 144h62l83 -114l86 114h54z" />
    <glyph glyph-name="uacute" unicode="&#xfa;" horiz-adv-x="556" 
d="M471 130q0 -13 1 -31.5t1.5 -37.5t1.5 -35.5t1 -25.5h-60q-1 26 -1.5 50t-2.5 31h-3q-18 -38 -60 -65.5t-98 -27.5q-54 0 -88.5 17t-54 44.5t-26.5 63.5t-7 74v275h60v-272q0 -28 5 -54.5t17.5 -47.5t35 -33.5t58.5 -12.5q33 0 62.5 11.5t51 35t34 59t12.5 83.5v231h60
v-332zM324 708h80l-134 -144h-50z" />
    <glyph glyph-name="ucircumflex" unicode="&#xfb;" horiz-adv-x="556" 
d="M471 130q0 -13 1 -31.5t1.5 -37.5t1.5 -35.5t1 -25.5h-60q-1 26 -1.5 50t-2.5 31h-3q-18 -38 -60 -65.5t-98 -27.5q-54 0 -88.5 17t-54 44.5t-26.5 63.5t-7 74v275h60v-272q0 -28 5 -54.5t17.5 -47.5t35 -33.5t58.5 -12.5q33 0 62.5 11.5t51 35t34 59t12.5 83.5v231h60
v-332zM243 708h70l108 -144h-65l-81 108l-81 -108h-59z" />
    <glyph glyph-name="udieresis" unicode="&#xfc;" horiz-adv-x="556" 
d="M471 130q0 -13 1 -31.5t1.5 -37.5t1.5 -35.5t1 -25.5h-60q-1 26 -1.5 50t-2.5 31h-3q-18 -38 -60 -65.5t-98 -27.5q-54 0 -88.5 17t-54 44.5t-26.5 63.5t-7 74v275h60v-272q0 -28 5 -54.5t17.5 -47.5t35 -33.5t58.5 -12.5q33 0 62.5 11.5t51 35t34 59t12.5 83.5v231h60
v-332zM325 652q0 20 14 34t34 14t34 -14t14 -34t-14 -34t-34 -14t-34 14t-14 34zM135 652q0 20 14 34t34 14t34 -14t14 -34t-14 -34t-34 -14t-34 14t-14 34z" />
    <glyph glyph-name="ugrave" unicode="&#xf9;" horiz-adv-x="556" 
d="M471 130q0 -13 1 -31.5t1.5 -37.5t1.5 -35.5t1 -25.5h-60q-1 26 -1.5 50t-2.5 31h-3q-18 -38 -60 -65.5t-98 -27.5q-54 0 -88.5 17t-54 44.5t-26.5 63.5t-7 74v275h60v-272q0 -28 5 -54.5t17.5 -47.5t35 -33.5t58.5 -12.5q33 0 62.5 11.5t51 35t34 59t12.5 83.5v231h60
v-332zM336 564h-50l-134 144h80z" />
    <glyph glyph-name="yacute" unicode="&#xfd;" horiz-adv-x="463" 
d="M210 -143q-17 -45 -47 -71t-80 -26q-15 0 -30 2.5t-29 6.5l6 56q13 -4 26.5 -7.5t27.5 -3.5q16 0 28.5 7t21.5 18t15.5 24.5t11.5 27.5l42 107l-188 464h67l153 -389l149 389h64zM278 708h80l-134 -144h-50z" />
    <glyph glyph-name="ydieresis" unicode="&#xff;" horiz-adv-x="463" 
d="M210 -143q-17 -45 -47 -71t-80 -26q-15 0 -30 2.5t-29 6.5l6 56q13 -4 26.5 -7.5t27.5 -3.5q16 0 28.5 7t21.5 18t15.5 24.5t11.5 27.5l42 107l-188 464h67l153 -389l149 389h64zM279 652q0 20 14 34t34 14t34 -14t14 -34t-14 -34t-34 -14t-34 14t-14 34zM89 652
q0 20 14 34t34 14t34 -14t14 -34t-14 -34t-34 -14t-34 14t-14 34z" />
    <glyph glyph-name="zcaron" horiz-adv-x="426" 
d="M27 36l277 372h-263v54h346v-36l-276 -372h288v-54h-372v36zM246 564h-70l-109 144h62l83 -114l86 114h54z" />
    <glyph glyph-name="zcaron" unicode="&#x17e;" horiz-adv-x="426" 
d="M27 36l277 372h-263v54h346v-36l-276 -372h288v-54h-372v36zM246 564h-70l-109 144h62l83 -114l86 114h54z" />
    <glyph glyph-name="Euro" 
d="M491 79q-12 -19 -31 -35.5t-41.5 -29t-48 -19.5t-51.5 -7q-97 0 -155 65t-75 190h-72l13 47h55q-1 14 -1.5 29t-0.5 31q0 20 1 39.5t3 37.5h-71l15 47h63q13 69 38.5 116.5t59 76t72 41t77.5 12.5q47 0 84.5 -10.5t57.5 -20.5l-18 -56q-22 12 -50.5 22.5t-65.5 10.5
q-75 0 -124 -48t-68 -144h271l-12 -47h-266q-2 -19 -3 -38.5t-1 -41.5q0 -15 0.5 -29t1.5 -28h234l-12 -47h-217q6 -46 19.5 -83.5t34 -64.5t48.5 -41.5t65 -14.5q42 0 76.5 20.5t52.5 50.5l42 -31v0z" />
    <glyph glyph-name="Euro" unicode="&#x20ac;" 
d="M491 79q-12 -19 -31 -35.5t-41.5 -29t-48 -19.5t-51.5 -7q-97 0 -155 65t-75 190h-72l13 47h55q-1 14 -1.5 29t-0.5 31q0 20 1 39.5t3 37.5h-71l15 47h63q13 69 38.5 116.5t59 76t72 41t77.5 12.5q47 0 84.5 -10.5t57.5 -20.5l-18 -56q-22 12 -50.5 22.5t-65.5 10.5
q-75 0 -124 -48t-68 -144h271l-12 -47h-266q-2 -19 -3 -38.5t-1 -41.5q0 -15 0.5 -29t1.5 -28h234l-12 -47h-217q6 -46 19.5 -83.5t34 -64.5t48.5 -41.5t65 -14.5q42 0 76.5 20.5t52.5 50.5l42 -31v0z" />
    <glyph glyph-name="fraction" unicode="&#x2215;" horiz-adv-x="168" 
d="M289 742l46 -28l-457 -748l-45 28z" />
    <glyph glyph-name="fi" unicode="&#xfb01;" horiz-adv-x="519" 
d="M114 408h-96v54h96v151q0 45 13.5 74.5t33.5 47.5t44.5 25.5t46.5 7.5q42 0 69 -12l-12 -52q-20 10 -54 10q-81 0 -81 -123v-129h108v-54h-108v-408h-60v408zM354 645q0 19 13 32t32 13t32 -13t13 -32t-13 -32t-32 -13t-32 13t-13 32zM369 462h60v-462h-60v462z" />
    <glyph glyph-name="fl" unicode="&#xfb02;" horiz-adv-x="519" 
d="M369 756h60v-756h-60v756zM114 408h-96v54h96v151q0 45 13.5 74.5t33.5 47.5t44.5 25.5t46.5 7.5q42 0 69 -12l-12 -52q-20 10 -54 10q-81 0 -81 -123v-129h108v-54h-108v-408h-60v408z" />
    <glyph glyph-name="breve" unicode="&#x2d8;" horiz-adv-x="240" 
d="M18 708q6 -40 33.5 -59t66.5 -19q45 0 69.5 17t34.5 61h42q-7 -60 -46.5 -93t-99.5 -33q-59 0 -99 33t-43 93h42z" />
    <glyph glyph-name="dotaccent" unicode="&#x2d9;" horiz-adv-x="240" 
d="M75 652q0 20 14 34t34 14t34 -14t14 -34t-14 -34t-34 -14t-34 14t-14 34z" />
    <glyph glyph-name="ring" unicode="&#x2da;" horiz-adv-x="240" 
d="M177 649q0 25 -16 42t-41 17t-41 -17.5t-16 -42.5t16.5 -41.5t40.5 -16.5q25 0 41 17t16 42zM27 649q0 19 7.5 36.5t20 30.5t29.5 20.5t37 7.5q19 0 36 -8t29.5 -21.5t19.5 -30.5t7 -36q0 -18 -7 -35t-19.5 -30t-29.5 -21t-36 -8q-20 0 -37 7.5t-29.5 20.5t-20 30.5
t-7.5 36.5z" />
    <glyph glyph-name="hungarumlaut" unicode="&#x2dd;" horiz-adv-x="240" 
d="M239 708h80l-134 -144h-50zM93 708h80l-134 -144h-50z" />
    <glyph glyph-name="ogonek" unicode="&#x2db;" horiz-adv-x="240" 
d="M187 -183q-16 -14 -36.5 -23.5t-48.5 -9.5q-40 0 -66 22t-26 60q0 21 8 40t20.5 36t28.5 31.5t31 26.5h45q-11 -8 -23.5 -21t-23.5 -28.5t-18.5 -34t-7.5 -37.5q0 -47 43 -47q21 0 34.5 7.5t20.5 15.5z" />
    <glyph glyph-name="caron" unicode="&#x2c7;" horiz-adv-x="240" 
d="M153 564h-70l-109 144h62l83 -114l86 114h54z" />
    <glyph glyph-name="Lslash" unicode="&#x141;" horiz-adv-x="500" 
d="M97 231l-72 -64v65l72 63v413h66v-358l216 189v-62l-216 -189v-228h330v-60h-396v231z" />
    <glyph glyph-name="dotlessi" unicode="&#x131;" horiz-adv-x="240" 
d="M90 462h60v-462h-60v462z" />
    <glyph glyph-name="lslash" unicode="&#x142;" horiz-adv-x="240" 
d="M90 324l-84 -85v67l84 85v365h60v-305l84 86v-67l-84 -85v-385h-60v324z" />
    <glyph glyph-name="minus" unicode="&#x2212;" horiz-adv-x="666" 
d="M78 327h510v-48h-510v48z" />
    <glyph glyph-name="nonbreakingspace" horiz-adv-x="260" 
 />
    <hkern u1="&#x2019;" u2="t" k="36" />
    <hkern u1="&#x2019;" u2="s" k="111" />
    <hkern u1="&#x2019;" u2="&#x2019;" k="87" />
    <hkern u1="A" u2="y" k="18" />
    <hkern u1="A" u2="w" k="18" />
    <hkern u1="A" u2="v" k="18" />
    <hkern u1="A" u2="Y" k="74" />
    <hkern u1="A" u2="W" k="5" />
    <hkern u1="A" u2="V" k="50" />
    <hkern u1="A" u2="T" k="68" />
    <hkern u1="A" u2="&#x2019;" k="86" />
    <hkern u1="F" u2="A" k="55" />
    <hkern u1="F" u2="&#x2e;" k="129" />
    <hkern u1="F" u2="&#x2c;" k="129" />
    <hkern u1="L" u2="y" k="37" />
    <hkern u1="L" u2="Y" k="111" />
    <hkern u1="L" u2="W" k="55" />
    <hkern u1="L" u2="V" k="92" />
    <hkern u1="L" u2="T" k="92" />
    <hkern u1="L" u2="&#x2019;" k="111" />
    <hkern u1="P" u2="A" k="74" />
    <hkern u1="P" u2="&#x2e;" k="153" />
    <hkern u1="P" u2="&#x2c;" k="153" />
    <hkern u1="R" u2="y" k="-24" />
    <hkern u1="R" u2="Y" k="13" />
    <hkern u1="R" u2="W" k="-6" />
    <hkern u1="R" u2="V" k="-6" />
    <hkern u1="R" u2="T" k="-6" />
    <hkern u1="T" u2="y" k="111" />
    <hkern u1="T" u2="w" k="111" />
    <hkern u1="T" u2="u" k="92" />
    <hkern u1="T" u2="s" k="111" />
    <hkern u1="T" u2="r" k="92" />
    <hkern u1="T" u2="o" k="111" />
    <hkern u1="T" u2="i" k="-24" />
    <hkern u1="T" u2="e" k="111" />
    <hkern u1="T" u2="c" k="111" />
    <hkern u1="T" u2="a" k="111" />
    <hkern u1="T" u2="A" k="68" />
    <hkern u1="T" u2="&#x3b;" k="111" />
    <hkern u1="T" u2="&#x3a;" k="111" />
    <hkern u1="T" u2="&#x2e;" k="111" />
    <hkern u1="T" u2="&#x2d;" k="129" />
    <hkern u1="T" u2="&#x2c;" k="111" />
    <hkern u1="V" u2="y" k="18" />
    <hkern u1="V" u2="u" k="37" />
    <hkern u1="V" u2="r" k="37" />
    <hkern u1="V" u2="o" k="55" />
    <hkern u1="V" u2="i" k="-6" />
    <hkern u1="V" u2="e" k="55" />
    <hkern u1="V" u2="a" k="55" />
    <hkern u1="V" u2="A" k="55" />
    <hkern u1="V" u2="&#x3b;" k="54" />
    <hkern u1="V" u2="&#x3a;" k="54" />
    <hkern u1="V" u2="&#x2e;" k="129" />
    <hkern u1="V" u2="&#x2d;" k="55" />
    <hkern u1="V" u2="&#x2c;" k="129" />
    <hkern u1="W" u2="u" k="18" />
    <hkern u1="W" u2="r" k="18" />
    <hkern u1="W" u2="o" k="18" />
    <hkern u1="W" u2="i" k="-24" />
    <hkern u1="W" u2="e" k="18" />
    <hkern u1="W" u2="a" k="37" />
    <hkern u1="W" u2="A" k="18" />
    <hkern u1="W" u2="&#x3b;" k="18" />
    <hkern u1="W" u2="&#x3a;" k="18" />
    <hkern u1="W" u2="&#x2e;" k="74" />
    <hkern u1="W" u2="&#x2c;" k="74" />
    <hkern u1="Y" u2="v" k="55" />
    <hkern u1="Y" u2="u" k="74" />
    <hkern u1="Y" u2="q" k="92" />
    <hkern u1="Y" u2="p" k="74" />
    <hkern u1="Y" u2="o" k="92" />
    <hkern u1="Y" u2="i" k="7" />
    <hkern u1="Y" u2="e" k="92" />
    <hkern u1="Y" u2="a" k="92" />
    <hkern u1="Y" u2="A" k="74" />
    <hkern u1="Y" u2="&#x3b;" k="92" />
    <hkern u1="Y" u2="&#x3a;" k="92" />
    <hkern u1="Y" u2="&#x2e;" k="99" />
    <hkern u1="Y" u2="&#x2d;" k="111" />
    <hkern u1="Y" u2="&#x2c;" k="123" />
    <hkern u1="&#x2018;" u2="&#x2018;" k="87" />
    <hkern u1="f" u2="f" k="18" />
    <hkern u1="f" u2="&#x2019;" k="-18" />
    <hkern u1="r" u2="q" k="18" />
    <hkern u1="r" u2="o" k="18" />
    <hkern u1="r" u2="g" k="18" />
    <hkern u1="r" u2="e" k="18" />
    <hkern u1="r" u2="d" k="18" />
    <hkern u1="r" u2="c" k="18" />
    <hkern u1="r" u2="&#x2e;" k="92" />
    <hkern u1="r" u2="&#x2d;" k="55" />
    <hkern u1="r" u2="&#x2c;" k="92" />
    <hkern u1="v" u2="&#x2e;" k="74" />
    <hkern u1="v" u2="&#x2c;" k="74" />
    <hkern u1="w" u2="&#x2e;" k="55" />
    <hkern u1="w" u2="&#x2c;" k="55" />
    <hkern u1="y" u2="&#x2e;" k="92" />
    <hkern u1="y" u2="&#x2c;" k="92" />
  </font>
</defs></svg>
